,SelfDistCorner,EnemyDistCorner,SelfDistEnemy,SelfDistFireball,EnemyDistFireball,FrameAdvantage,SelfLife,EnemyLife,InCombo,EnemyInCombo,EnemyY,Option,RW,RS
0,24,456,250,730,730,1,15,755,0,0,205,11,0,1545
1,285,285,160,730,730,0,1100,1100,0,0,205,5,73,0
2,255,295,180,730,730,0,975,1100,0,0,205,11,0,343
3,24,661,45,730,730,-4,705,1100,0,1,205,27,0,685
4,24,644,62,730,730,0,705,1100,0,0,205,17,0,431
5,24,662,44,730,730,10,565,1100,1,1,205,31,344,0
6,168,487,75,730,730,10,565,930,1,0,205,7,0,194
7,145,487,98,730,730,2,565,930,1,0,205,0,0,32
8,145,487,98,730,730,0,565,930,0,0,205,7,0,441
9,132,487,111,730,730,0,565,930,0,0,205,16,0,265
10,132,487,111,730,730,0,565,930,0,0,205,16,0,821
11,82,592,56,730,730,-4,425,930,0,1,205,29,104,0
12,82,549,99,730,730,1,425,930,0,0,205,9,111,0
13,82,491,157,730,730,0,425,915,0,0,131,22,688,0
14,82,494,154,730,730,0,425,915,0,0,125,22,708,0
15,82,498,150,730,730,0,425,915,0,0,120,9,849,0
16,218,366,146,730,730,0,425,775,1,1,81,0,72,0
17,218,330,182,730,730,0,425,775,1,0,134,5,66,0
18,253,321,156,730,730,0,425,775,0,0,151,5,0,12
19,298,373,59,730,730,0,425,775,0,0,101,17,118,0
20,388,284,58,730,730,0,425,775,0,0,205,23,192,0
21,365,284,81,730,730,0,395,775,0,0,205,14,0,302
22,250,284,196,730,730,11,205,775,1,0,205,9,0,21
23,250,211,269,730,730,5,205,760,0,0,205,0,13,0
24,250,201,279,730,730,0,205,760,0,0,205,10,114,0
25,250,340,140,730,59,0,205,760,0,0,104,0,197,0
26,250,361,119,730,99,19,205,760,1,0,125,13,0,1056
27,137,375,218,730,730,1,95,760,1,0,205,0,0,31
28,137,379,214,730,730,0,95,760,0,0,205,9,118,0
29,137,326,267,730,730,3,95,745,0,0,205,0,0,20
30,137,333,260,730,730,0,95,745,0,0,205,10,8,0
31,137,346,247,730,730,12,95,730,0,0,205,5,822,0
32,181,309,240,730,730,0,95,730,0,0,205,0,314,0
33,181,309,240,730,730,41,95,730,1,0,205,22,0,959
34,181,309,240,167,730,40,95,730,1,0,205,11,0,441
35,317,309,104,117,730,17,95,730,1,0,205,7,0,2571
36,284,202,244,730,730,0,1100,1085,0,0,205,10,194,0
37,282,366,82,730,117,0,1100,1085,1,0,205,13,162,0
38,263,403,64,730,730,17,1070,1085,1,0,205,19,0,586
39,222,464,44,730,730,50,970,1085,1,0,187,18,0,836
40,216,451,63,730,730,0,970,1055,1,0,168,25,0,731
41,188,495,47,730,730,-4,830,1055,0,1,205,28,0,259
42,24,495,211,730,730,9,610,1055,1,0,205,22,0,48
43,24,495,211,730,730,8,610,1055,1,0,205,11,0,33
44,24,546,160,730,730,43,485,1055,1,0,205,10,0,719
45,24,574,132,730,730,0,485,1055,0,0,137,5,241,0
46,24,570,136,730,730,0,485,1055,0,0,143,22,0,418
47,24,661,45,730,730,17,225,1055,1,0,205,25,178,0
48,50,528,152,730,730,50,225,905,0,1,137,9,593,0
49,60,483,187,730,56,10,225,905,1,0,205,0,0,139
50,60,483,187,730,80,4,225,905,1,0,205,10,0,387
51,60,506,164,730,178,0,225,905,0,0,205,9,0,230
52,59,462,209,730,730,0,225,905,0,0,205,10,0,18
53,57,462,211,730,730,0,225,905,0,0,205,9,0,195
54,24,602,104,730,193,26,180,905,1,0,205,7,0,585
55,24,602,104,730,226,18,180,905,1,0,205,3,754,0
56,115,552,63,730,730,10,180,765,1,0,205,18,0,144
57,115,552,63,730,730,1,180,765,1,0,205,20,0,230
58,24,552,154,730,730,11,90,765,1,0,205,9,0,17
59,24,464,242,730,730,0,90,750,0,0,205,9,0,2208
60,329,285,116,730,730,0,1100,1100,0,0,205,0,0,0
61,329,285,116,730,730,0,1100,1100,0,0,205,8,0,696
62,418,267,45,730,730,25,1100,1100,1,0,205,19,0,1258
63,362,351,17,730,730,-4,960,1100,0,1,128,26,0,147
64,228,295,207,730,730,11,630,1100,1,0,205,10,333,0
65,228,253,249,730,730,12,630,1010,1,0,205,9,31,0
66,227,324,179,730,61,0,630,1010,0,0,120,0,175,0
67,227,345,158,730,107,18,630,1010,1,0,158,10,0,393
68,227,362,141,730,199,0,630,1010,0,0,205,22,66,0
69,227,362,141,730,203,0,630,1010,0,0,205,10,0,50
70,241,413,76,730,730,-4,460,1010,0,1,205,28,0,469
71,175,453,102,730,730,15,320,1010,1,1,205,28,0,576
72,136,453,141,730,730,0,220,1010,0,0,205,9,0,1
73,135,453,142,730,730,0,220,1010,0,0,205,10,0,790
74,24,514,192,37,730,10,100,1010,1,1,205,31,0,75
75,284,195,251,730,730,1,1100,1085,0,0,205,0,672,0
76,284,195,251,730,730,46,1100,1085,1,0,205,9,0,754
77,284,212,234,730,730,0,1100,1085,0,0,205,5,0,5
78,284,212,234,730,730,0,1100,1085,0,0,205,22,0,223
79,227,436,67,730,730,0,970,1085,0,0,103,23,0,686
80,24,564,142,37,730,26,630,1085,1,1,205,29,0,82
81,24,564,142,730,730,0,615,1085,0,0,205,9,380,0
82,24,475,231,730,730,0,615,995,0,0,205,10,0,33
83,24,477,229,730,730,0,615,995,0,0,205,0,0,36
84,24,494,212,730,730,0,615,995,0,0,158,11,0,348
85,24,640,66,730,730,26,330,995,1,0,205,19,0,1251
86,24,628,78,730,730,-4,190,995,0,1,205,29,82,0
87,24,598,108,730,730,0,190,995,0,0,205,12,1852,0
88,542,144,44,730,730,8,190,885,1,1,205,17,1080,0
89,546,24,160,730,730,50,190,765,1,0,153,11,0,200
90,24,659,47,730,730,-4,70,765,0,1,205,31,572,0
91,168,486,76,730,730,10,70,595,1,0,205,15,350,0
92,429,248,53,730,730,9,1100,970,1,1,205,17,1110,0
93,452,118,160,730,730,50,1100,850,1,0,153,22,0,50
94,452,110,168,730,730,50,1100,850,1,0,155,10,0,201
95,617,38,75,730,730,10,1100,850,1,0,205,15,350,0
96,442,209,79,730,730,-4,940,850,0,1,205,27,0,87
97,312,192,226,730,730,4,750,850,1,0,205,0,0,41
98,312,192,226,730,730,5,750,850,1,0,205,22,0,264
99,421,244,65,730,730,-4,705,850,0,1,205,27,0,337
