,SelfDistCorner,EnemyDistCorner,SelfDistEnemy,SelfDistFireball,EnemyDistFireball,FrameAdvantage,SelfLife,EnemyLife,InCombo,EnemyInCombo,EnemyY,Option,RW,RS
0,327,338,65,730,730,11,1100,1100,1,0,205,21,334,0
1,347,301,82,730,730,-9,1100,1020,1,1,205,40,423,0
2,347,206,177,730,730,0,1100,890,0,0,131,0,0,42
3,347,227,156,730,730,0,1100,890,0,0,106,9,347,0
4,481,182,67,730,730,10,1100,800,1,0,205,23,0,650
5,306,323,101,730,730,28,930,800,1,1,205,28,0,425
6,295,323,112,730,730,3,930,800,1,0,205,0,0,46
7,295,323,112,730,730,0,930,800,0,0,205,5,0,4
8,303,323,104,730,730,0,930,800,0,0,205,16,0,822
9,253,417,60,730,730,4,790,800,1,1,205,27,0,899
10,235,417,78,730,730,0,790,800,0,0,205,15,0,827
11,185,464,81,730,730,13,650,800,1,1,205,26,0,210
12,152,464,114,730,730,0,650,800,0,0,205,12,610,0
13,295,356,79,730,730,8,650,690,1,1,205,16,0,370
14,295,340,95,730,730,0,650,690,0,0,205,15,0,311
15,164,340,226,730,730,2,460,690,1,0,205,5,0,21
16,201,371,158,730,730,0,460,690,0,0,205,11,629,0
17,345,306,79,730,730,9,460,560,1,1,205,3,365,0
18,345,169,216,730,730,0,460,370,0,0,205,0,0,0
19,345,169,216,730,730,0,460,370,0,0,205,9,123,0
20,345,111,274,730,730,6,460,355,0,0,205,10,80,0
21,343,106,281,730,730,5,460,355,1,0,205,22,0,113
22,343,106,281,730,730,4,460,355,1,0,205,10,0,300
23,330,302,98,730,730,0,350,355,0,0,205,12,44,0
24,241,445,44,730,730,8,350,245,1,1,205,23,308,0
25,233,388,109,730,730,0,350,105,0,0,205,5,400,0
26,250,388,92,730,730,26,350,105,1,0,205,9,0,949
27,198,454,78,730,730,16,210,105,1,1,205,31,2255,0
28,267,285,178,730,730,0,975,1100,0,0,205,5,0,308
29,311,321,98,730,730,0,975,1100,0,0,125,3,71,0
30,311,395,24,730,730,13,975,1100,1,0,134,22,0,560
31,311,402,17,730,730,11,975,1100,1,0,147,21,0,525
32,311,398,21,730,730,12,975,1100,1,0,140,22,0,542
33,207,447,76,730,730,31,930,1100,1,1,205,26,0,729
34,177,449,104,730,730,0,760,1100,0,0,205,15,0,37
35,177,550,3,730,730,0,760,1100,1,0,125,25,819,0
36,177,547,6,730,730,1,760,1100,1,0,120,22,929,0
37,406,171,153,730,730,0,760,1100,0,0,205,11,0,75
38,313,346,71,730,730,0,710,1100,0,0,104,3,0,289
39,259,425,46,730,730,0,650,1100,0,0,205,21,502,0
40,276,392,62,730,730,-9,650,1020,1,1,205,0,333,0
41,256,358,116,730,730,4,650,980,1,0,205,13,140,0
42,303,368,59,730,730,0,620,980,0,0,205,24,368,0
43,303,290,137,730,730,0,620,810,0,0,158,0,0,339
44,303,311,116,730,730,0,620,810,0,0,120,3,0,192
45,303,385,42,730,730,19,620,810,1,0,143,24,0,769
46,261,419,50,730,730,0,575,810,0,0,205,21,490,0
47,276,392,62,730,730,-9,575,730,1,1,205,40,425,0
48,276,298,156,730,730,0,575,600,0,0,131,9,0,447
49,240,429,61,730,201,0,525,600,0,0,205,20,0,270
50,240,432,58,730,730,0,525,600,0,0,205,24,0,124
51,240,336,154,730,730,0,525,585,0,0,175,22,702,0
52,240,340,150,730,730,0,525,585,0,0,166,9,849,0
53,376,202,152,730,730,0,525,445,1,1,89,5,131,0
54,411,145,174,730,730,0,525,445,0,0,195,11,0,122
55,318,348,64,730,730,0,475,445,0,0,103,19,73,0
56,274,410,46,730,730,0,415,445,0,0,205,25,0,651
57,83,411,236,65,730,5,295,445,1,1,205,29,0,426
58,24,494,212,730,730,0,205,445,0,0,205,9,54,0
59,24,474,232,730,730,0,205,430,0,0,205,5,0,3
60,67,519,144,730,730,0,205,430,0,0,205,5,54,0
61,112,531,87,730,730,0,205,430,0,0,205,5,0,312
62,130,531,69,730,730,25,205,430,1,0,205,23,0,800
63,82,531,117,730,730,1,80,430,1,0,205,7,384,0
64,59,531,140,730,730,0,80,430,0,0,205,0,341,0
65,59,531,140,730,730,24,80,430,1,0,205,10,10,0
66,59,436,235,730,730,0,80,340,0,0,205,9,426,0
67,58,569,103,730,137,20,80,340,1,0,166,0,0,359
68,58,583,89,730,176,0,80,340,1,0,205,7,355,0
69,44,598,88,730,224,0,80,340,0,0,205,13,0,2412
70,285,285,160,730,730,0,1100,1100,0,0,205,5,73,0
71,255,282,193,730,730,0,975,1100,0,0,205,5,0,12
72,299,331,100,730,730,0,975,1100,0,0,109,13,377,0
73,425,269,36,730,730,50,975,1010,0,1,74,23,0,4
74,480,206,44,730,730,10,975,1010,1,0,205,38,73,0
75,487,167,76,730,730,4,975,960,1,0,205,3,0,172
76,487,44,199,730,730,42,975,945,1,0,205,5,0,525
77,438,44,248,730,730,0,960,945,0,0,205,0,0,15
78,530,44,156,42,730,27,975,945,1,0,205,10,0,563
79,438,54,238,730,730,0,960,945,0,0,205,9,61,0
80,438,191,101,730,139,26,960,945,1,0,205,15,0,1255
81,388,260,82,730,730,15,820,945,1,1,205,26,0,225
82,355,260,115,730,730,1,820,945,1,0,205,12,0,169
83,207,479,44,730,730,8,820,835,1,1,205,20,0,595
84,200,470,60,730,730,0,820,835,0,0,205,25,0,465
85,229,424,77,730,730,20,820,825,1,1,205,5,0,629
86,108,424,198,730,730,11,630,825,1,0,205,0,0,122
87,108,424,198,730,730,5,630,825,1,0,205,9,66,0
88,108,357,265,730,730,0,630,810,0,0,205,9,0,18
89,107,363,260,730,730,0,630,810,0,0,205,9,248,0
90,105,529,96,730,144,12,630,810,1,0,194,12,995,0
91,485,185,60,730,730,11,630,700,1,1,205,18,0,21
92,485,179,66,730,730,5,630,670,1,0,205,23,391,0
93,485,110,135,730,730,0,630,530,0,0,205,11,0,360
94,197,428,105,730,730,-4,290,530,0,1,205,26,202,0
95,163,432,135,730,730,8,290,530,1,0,205,9,719,0
96,161,347,222,730,730,44,290,515,1,0,205,9,0,723
97,160,365,205,730,730,0,290,515,0,0,175,0,0,42
98,160,386,184,730,730,0,290,515,0,0,131,11,0,474
99,24,644,62,730,730,-4,5,515,0,1,205,27,0,2135
