,SelfDistCorner,EnemyDistCorner,SelfDistEnemy,SelfDistFireball,EnemyDistFireball,FrameAdvantage,SelfLife,EnemyLife,InCombo,EnemyInCombo,EnemyY,Option,RW,RS
0,311,328,91,730,730,0,975,1100,0,0,205,3,977,0
1,330,281,119,730,80,10,975,960,1,0,205,7,0,204
2,308,281,141,730,105,2,975,960,1,0,205,22,186,0
3,308,281,141,730,108,1,975,960,1,0,205,11,198,0
4,423,167,140,730,730,0,975,830,0,0,205,0,32,0
5,423,255,52,730,243,0,975,830,1,1,155,20,0,77
6,423,167,140,730,730,0,975,830,1,0,202,22,0,298
7,229,309,192,730,730,0,805,830,0,0,205,10,387,0
8,228,439,63,730,142,14,805,830,1,0,171,17,353,0
9,228,432,70,730,129,16,805,830,1,0,154,22,293,0
10,228,436,66,730,136,15,805,830,1,0,162,22,312,0
11,363,312,55,730,269,19,805,770,1,1,205,21,0,1040
12,243,312,175,730,730,11,615,770,1,0,205,0,0,123
13,243,312,175,730,730,5,615,770,1,0,205,10,36,0
14,243,252,235,730,730,0,615,755,0,0,205,10,0,285
15,190,405,135,730,166,22,485,755,1,0,205,0,0,136
16,190,405,135,730,185,16,485,755,1,0,205,11,170,0
17,333,334,63,730,730,11,485,625,1,1,205,21,0,175
18,333,289,108,730,730,3,485,575,1,0,205,3,0,59
19,333,287,110,730,730,0,485,575,0,0,205,7,0,24
20,317,287,126,730,730,0,485,575,0,0,205,22,291,0
21,317,287,126,730,730,0,485,575,0,0,205,10,189,0
22,261,424,45,730,730,-4,315,575,0,1,205,26,67,0
23,244,424,62,730,730,0,315,575,0,0,205,25,0,440
24,273,390,67,730,730,0,315,565,0,1,205,17,1226,0
25,293,277,160,730,730,50,315,445,1,0,153,5,0,565
26,471,197,62,730,730,6,315,445,1,0,205,20,0,1025
27,448,197,85,730,730,26,285,445,1,0,205,3,0,907
28,394,291,45,730,730,4,145,445,1,1,205,30,0,252
29,370,291,69,730,730,17,115,445,1,0,205,20,0,3360
30,340,291,99,730,730,27,35,445,1,0,205,15,0,3247
31,329,285,116,730,730,0,1100,1100,0,0,205,8,139,0
32,302,283,145,730,730,0,975,1100,0,0,205,11,0,293
33,24,459,247,73,730,4,635,1100,1,1,205,27,0,193
34,24,548,158,730,730,0,545,1100,0,0,205,5,0,412
35,68,573,89,730,730,0,545,1100,0,0,205,16,466,0
36,68,518,144,730,730,1,545,950,1,0,205,9,319,0
37,66,453,211,730,730,0,545,860,0,0,205,10,483,0
38,65,590,75,730,124,24,545,860,1,0,205,0,0,247
39,30,590,110,730,212,8,545,860,1,0,205,12,28,0
40,24,506,200,730,730,0,420,750,0,0,205,10,0,76
41,24,660,46,730,730,-4,235,750,0,1,205,30,0,393
42,47,623,60,730,730,0,235,740,0,1,205,23,0,92
43,24,615,91,730,730,0,205,740,0,0,205,0,0,298
44,24,614,92,730,730,0,205,740,0,0,205,3,0,118
45,24,523,183,730,730,0,205,725,0,0,158,5,0,461
46,68,576,86,730,730,0,205,725,0,0,100,16,123,0
47,68,499,163,730,730,0,205,575,1,0,125,5,183,0
48,111,422,197,730,730,0,205,575,0,0,205,5,3,0
49,156,462,112,730,730,0,205,575,0,0,120,8,292,0
50,464,167,99,730,730,0,205,575,0,0,205,12,0,182
51,409,187,134,730,730,0,175,575,0,0,205,0,0,23
52,409,199,122,730,730,0,175,575,0,0,205,11,0,145
53,292,350,88,730,730,17,125,575,1,0,205,16,0,592
54,256,350,124,730,730,0,25,575,0,0,205,0,0,19
55,256,360,114,730,730,0,25,575,0,0,205,12,448,0
56,309,377,44,730,730,8,25,465,1,1,205,20,0,152
57,301,384,45,730,730,0,25,465,0,0,205,21,83,0
58,321,349,60,730,730,-13,25,465,0,1,205,0,209,0
59,301,318,111,730,730,0,25,465,0,0,205,8,0,697
60,329,285,116,730,730,0,1100,1100,0,0,205,15,0,278
61,329,283,118,730,730,0,1100,1100,0,0,205,7,0,48
62,312,297,121,730,730,0,1100,1100,0,0,205,5,57,0
63,356,306,68,730,730,0,1100,1100,0,0,205,25,0,460
64,386,260,84,730,730,0,1100,1090,0,1,205,7,0,313
65,136,528,66,730,730,15,840,1090,1,1,205,30,0,518
66,106,528,96,730,730,24,760,1090,1,0,205,14,0,1199
67,58,514,158,50,730,25,620,1090,1,1,205,29,0,72
68,24,519,187,730,730,0,605,1090,0,0,205,5,36,0
69,68,537,125,730,730,0,605,1090,0,0,205,9,141,0
70,66,458,206,730,730,0,605,1075,0,0,185,5,0,471
71,110,510,110,730,730,0,605,1075,0,0,102,15,0,95
72,104,581,45,730,730,0,605,1075,0,0,205,23,460,0
73,104,518,108,730,730,0,605,935,0,0,205,12,0,566
74,24,598,108,730,730,0,455,935,0,0,205,13,134,0
75,78,549,103,730,730,0,425,935,0,0,205,5,0,26
76,95,552,83,730,730,26,425,935,1,0,205,13,0,857
77,32,552,146,730,730,0,285,935,0,0,205,11,60,0
78,24,606,100,730,730,37,160,935,1,0,205,15,0,471
79,24,606,100,730,730,7,160,935,1,0,205,3,867,0
80,44,556,130,730,68,10,160,795,1,0,205,5,678,0
81,89,556,85,730,115,0,160,795,0,0,205,13,0,605
82,24,651,55,730,730,-4,10,795,0,1,205,26,198,0
83,24,637,69,730,730,7,10,795,1,0,205,25,0,2246
84,285,285,160,730,730,0,1100,1100,0,0,205,5,52,0
85,320,283,127,730,730,0,1100,1100,0,0,205,10,139,0
86,318,204,208,730,730,0,1100,1085,0,0,205,5,2,0
87,362,246,122,730,730,0,1100,1085,0,0,116,5,0,272
88,407,298,25,730,730,0,1100,1085,0,0,116,21,0,184
89,362,299,69,730,730,0,1070,1085,0,0,205,18,1,0
90,362,282,86,730,730,1,1070,1085,0,0,205,13,0,383
91,86,599,45,730,730,2,900,1085,1,1,205,29,139,0
92,86,582,62,730,730,5,900,1055,1,0,205,20,0,47
93,85,600,45,730,730,0,900,1055,0,0,205,23,461,0
94,85,537,108,730,730,0,900,915,0,0,205,14,519,0
95,235,362,133,730,730,10,900,745,1,0,205,0,0,124
96,235,362,133,730,730,4,900,745,1,0,205,0,0,41
97,235,354,141,730,730,0,900,745,0,0,205,0,36,0
98,235,336,159,730,730,0,900,745,0,0,205,9,424,0
99,235,232,263,730,730,50,900,655,0,0,198,22,451,0
