,SelfDistCorner,EnemyDistCorner,SelfDistEnemy,SelfDistFireball,EnemyDistFireball,FrameAdvantage,SelfLife,EnemyLife,InCombo,EnemyInCombo,EnemyY,Option,RW,RS
0,161,464,105,730,730,2,660,1085,1,0,205,0,0,32
1,161,464,105,730,730,0,660,1085,0,0,205,8,0,558
2,269,388,73,730,730,19,660,1085,1,0,205,3,62,0
3,232,452,46,730,730,50,560,1085,1,0,187,19,0,844
4,223,417,90,730,730,0,560,1005,1,0,177,7,15,0
5,206,401,123,730,730,0,560,1005,0,0,205,5,69,0
6,250,399,81,730,730,0,560,1005,0,0,158,5,0,370
7,268,420,42,730,730,0,560,1005,0,0,120,24,136,0
8,462,230,38,730,730,0,560,1005,0,0,158,23,490,0
9,461,148,121,730,730,0,560,865,0,0,205,5,0,318
10,505,125,100,730,730,0,560,865,0,0,205,3,45,0
11,505,85,140,730,730,0,560,865,0,0,205,10,0,126
12,455,143,132,730,730,-4,420,775,0,1,205,26,363,0
13,455,161,114,730,730,21,420,775,1,0,205,14,0,967
14,305,179,246,730,730,0,230,775,0,0,205,0,0,5
15,402,156,172,47,730,26,320,775,1,0,205,10,0,475
16,305,176,249,730,730,0,230,775,0,0,205,22,0,181
17,429,249,52,730,730,9,1100,970,1,1,205,21,382,0
18,449,201,80,730,730,-9,1100,890,1,1,205,40,423,0
19,449,85,196,730,730,0,1100,760,0,0,175,11,0,385
20,279,306,145,730,730,0,960,760,0,0,118,5,0,428
21,253,352,125,730,730,25,830,760,1,0,205,0,0,124
22,253,352,125,730,730,19,830,760,1,0,205,5,0,197
23,287,352,91,730,730,4,830,760,1,0,205,0,0,63
24,287,352,91,730,730,0,830,760,0,0,205,7,139,0
25,274,344,112,730,730,12,830,760,1,0,205,7,0,186
26,250,344,136,730,730,4,830,760,1,0,205,5,2,0
27,293,344,93,730,730,0,830,760,0,0,205,3,20,0
28,257,308,165,730,730,0,730,660,0,0,205,9,1057,0
29,257,231,242,730,730,44,730,570,1,0,205,0,0,411
30,257,231,242,160,730,38,730,570,1,0,205,10,0,83
31,257,232,241,142,730,33,730,570,1,0,205,10,0,324
32,255,291,184,730,730,0,730,570,0,0,205,0,0,25
33,255,301,174,730,730,0,730,570,0,0,185,22,0,346
34,255,304,171,730,730,0,730,570,0,0,175,11,0,353
35,24,569,137,53,730,12,470,570,1,0,205,11,1004,0
36,83,503,144,730,730,0,440,440,0,0,205,9,158,0
37,82,407,241,730,730,45,440,425,1,0,205,11,0,392
38,225,377,128,123,730,11,440,295,1,1,205,22,399,0
39,225,374,131,126,730,10,440,295,1,0,205,9,399,0
40,235,327,168,730,730,0,360,295,0,0,205,0,24,0
41,235,314,181,730,730,0,360,295,0,0,205,0,68,0
42,235,317,178,730,730,0,360,295,0,0,205,22,368,0
43,371,215,144,730,730,0,360,295,0,0,205,11,630,0
44,515,149,66,730,730,9,360,165,1,1,205,24,2265,0
45,285,285,160,730,730,0,1100,1100,0,0,205,5,73,0
46,215,301,214,730,730,0,950,1100,0,0,205,11,96,0
47,194,286,250,730,730,0,800,1100,0,0,205,9,64,0
48,193,265,272,730,730,9,800,1085,0,0,205,10,74,0
49,191,242,297,730,730,3,800,1085,1,0,205,10,0,91
50,190,306,234,730,730,25,800,1070,0,0,205,0,29,0
51,190,306,234,730,730,19,800,1070,0,0,205,0,89,0
52,190,255,285,730,730,12,800,1070,0,0,205,22,218,0
53,190,250,290,730,730,11,800,1070,0,0,205,10,0,200
54,231,255,244,730,730,0,710,1070,0,0,205,22,269,0
55,231,258,241,730,730,0,710,1070,0,0,205,10,157,0
56,368,290,72,730,730,0,710,1070,1,0,116,0,0,0
57,368,290,72,730,730,0,710,1070,1,0,151,13,0,375
58,80,440,210,730,730,7,540,1070,1,0,205,0,0,108
59,80,440,210,730,730,1,540,1070,1,0,205,11,421,0
60,51,359,320,730,730,0,390,940,0,0,205,11,174,0
61,194,433,103,730,730,0,390,810,1,1,92,0,48,0
62,194,409,127,730,730,0,390,810,1,0,82,11,161,0
63,166,465,99,730,730,0,280,810,0,0,195,15,17,0
64,166,400,164,730,730,0,280,685,1,0,135,5,92,0
65,204,377,149,730,730,0,280,685,0,0,205,0,0,4
66,204,374,152,730,730,0,280,685,0,0,205,22,233,0
67,186,411,133,730,730,0,155,685,0,0,205,9,145,0
68,184,322,224,730,730,0,155,670,0,0,205,9,0,287
69,284,195,251,730,730,0,1100,1085,0,0,205,0,626,0
70,284,195,251,730,730,43,1100,1085,1,0,205,9,0,356
71,284,197,249,167,730,38,1100,1085,1,0,205,9,0,388
72,282,234,214,730,730,0,1100,1085,0,0,205,22,0,343
73,282,234,214,730,730,0,1100,1085,0,0,205,22,0,343
74,282,238,210,730,730,0,1100,1085,0,0,195,11,0,361
75,24,620,86,730,730,-4,660,1085,0,1,205,29,64,0
76,24,603,103,730,730,1,660,1085,0,0,205,14,0,824
77,24,601,105,19,730,20,520,1085,1,1,205,31,214,0
78,168,426,136,730,730,10,520,915,1,0,205,9,0,468
79,35,355,340,730,730,-3,350,825,1,1,205,30,0,85
80,57,355,318,136,730,14,350,825,1,0,205,5,0,205
81,57,355,318,144,730,16,350,825,1,0,205,22,0,155
82,57,355,318,140,730,15,350,825,1,0,205,22,0,134
83,194,436,100,184,730,18,350,825,1,0,205,3,0,372
84,157,436,137,730,730,0,250,825,0,0,205,22,596,0
85,157,434,139,730,730,0,250,825,0,0,205,10,147,0
86,293,346,91,730,730,9,250,825,1,0,205,3,348,0
87,293,222,215,730,730,0,250,635,0,0,205,5,13,0
88,337,257,136,730,730,0,250,635,0,0,125,5,272,0
89,382,316,32,730,730,16,250,635,1,0,116,25,0,453
90,382,309,39,730,730,18,250,635,1,0,109,22,0,634
91,382,313,35,730,730,17,250,635,1,0,112,22,0,619
92,440,235,55,730,730,-4,205,635,0,1,205,29,67,0
93,440,218,72,730,730,1,205,635,0,0,205,3,0,115
94,440,99,191,730,730,42,205,620,1,0,205,5,0,876
95,389,99,242,730,730,0,115,620,0,0,205,0,0,12
96,389,107,234,730,730,0,115,620,0,0,205,5,0,17
97,423,149,158,730,730,0,115,620,0,0,116,11,0,1063
98,174,478,78,730,730,0,115,620,0,0,205,3,464,0
99,174,350,206,730,730,41,115,430,1,0,205,9,0,690
