,SelfDistCorner,EnemyDistCorner,SelfDistEnemy,SelfDistFireball,EnemyDistFireball,FrameAdvantage,SelfLife,EnemyLife,InCombo,EnemyInCombo,EnemyY,Option,RW,RS
0,525,66,139,730,730,3,260,355,1,0,205,10,127,0
1,583,97,50,730,730,0,230,355,0,0,205,23,0,1599
2,583,97,50,730,730,20,230,355,1,0,205,23,0,1915
3,583,100,47,730,730,0,230,355,0,0,205,22,0,1569
4,583,97,50,730,730,19,230,355,1,0,205,22,0,1884
5,24,662,44,730,730,0,200,355,0,0,205,23,0,1046
6,24,654,52,730,730,-4,80,355,0,1,205,28,215,0
7,24,581,125,730,730,0,80,355,0,0,205,10,0,680
8,255,286,189,730,730,0,975,1100,0,0,205,22,314,0
9,255,286,189,730,730,0,975,1100,0,0,205,22,324,0
10,255,286,189,730,730,0,975,1100,0,0,205,10,428,0
11,392,250,88,730,730,0,975,1050,1,1,74,8,0,378
12,233,472,25,730,730,5,975,1050,1,0,100,25,0,146
13,233,475,22,730,730,6,975,1050,1,0,101,22,398,0
14,363,303,64,730,730,0,975,1000,1,1,154,20,0,66
15,363,287,80,730,730,43,975,1000,1,0,205,15,0,773
16,268,287,175,730,730,11,885,1000,1,0,205,5,0,121
17,306,289,135,730,730,0,885,1000,0,0,205,11,316,0
18,419,255,56,148,730,13,885,870,1,1,205,25,299,0
19,442,98,190,730,730,50,885,720,0,1,137,9,610,0
20,452,53,225,730,17,10,885,720,1,0,205,5,0,119
21,497,53,180,730,79,0,885,720,0,0,205,0,0,26
22,497,55,178,730,110,0,885,720,0,0,205,5,0,267
23,497,53,180,730,104,0,885,720,0,0,205,22,0,133
24,455,230,45,730,730,14,715,720,1,1,205,31,279,0
25,599,55,76,730,730,10,715,550,1,0,205,3,0,251
26,504,56,170,730,730,11,625,550,1,0,205,11,0,455
27,233,235,262,730,730,0,365,550,0,0,205,22,0,165
28,233,238,259,730,730,0,365,550,0,0,205,22,0,160
29,233,241,256,730,730,0,365,550,0,0,205,10,0,329
30,285,285,160,730,730,0,1100,1100,0,0,205,0,37,0
31,285,285,160,730,730,0,1100,1100,0,0,205,22,147,0
32,255,288,187,730,730,0,975,1100,0,0,205,22,267,0
33,255,291,184,730,730,0,975,1100,0,0,205,10,0,542
34,342,333,55,730,730,22,835,1100,1,1,205,30,92,0
35,365,203,162,730,730,50,835,950,0,1,137,22,550,0
36,365,173,192,730,730,50,835,950,0,0,174,9,334,0
37,491,103,136,730,730,1,835,800,1,0,205,22,0,366
38,491,103,136,730,730,0,835,800,0,0,205,11,0,386
39,205,422,103,730,730,-4,495,800,0,1,205,28,0,513
40,129,425,176,730,730,0,345,800,0,0,205,10,54,0
41,125,560,45,730,157,0,345,800,1,0,205,18,162,0
42,125,542,63,730,195,4,345,770,1,0,205,18,0,97
43,125,543,62,730,193,5,345,770,1,0,205,22,123,0
44,125,540,65,730,197,3,345,770,1,0,205,21,153,0
45,454,225,51,730,730,17,345,770,1,1,205,24,0,631
46,331,225,174,730,730,11,175,770,1,0,205,0,0,123
47,331,225,174,730,730,5,175,770,1,0,205,10,44,0
48,331,154,245,730,730,0,175,755,0,0,205,22,0,309
49,331,155,244,730,730,0,175,755,0,0,205,11,0,308
50,284,195,251,730,730,0,1100,1085,0,0,205,9,27,0
51,282,195,253,730,730,2,1100,1085,1,0,205,5,0,22
52,326,231,173,730,730,0,1100,1085,0,0,137,0,0,42
53,326,252,152,730,730,0,1100,1085,0,0,109,10,312,0
54,326,227,177,730,730,50,1100,995,0,0,206,11,415,0
55,29,656,45,730,730,9,930,995,1,1,205,29,0,133
56,24,631,75,730,730,11,930,995,1,0,205,14,0,353
57,24,599,107,730,730,25,880,995,1,0,205,5,0,100
58,40,599,91,730,730,19,880,995,1,0,205,0,0,126
59,40,599,91,730,730,13,880,995,1,0,205,14,0,977
60,24,661,45,730,730,15,620,995,1,1,205,28,0,357
61,24,630,76,730,730,18,620,995,1,0,205,16,0,539
62,24,598,108,730,730,0,540,995,0,0,205,12,330,0
63,160,459,111,730,730,0,540,995,0,0,205,14,519,0
64,313,284,133,730,730,10,540,825,1,0,205,10,275,0
65,445,180,105,730,730,10,540,735,1,0,205,13,0,8
66,491,192,47,730,730,7,510,735,1,0,205,22,0,617
67,451,192,87,730,730,20,450,735,1,0,205,14,0,618
68,337,192,201,730,730,11,260,735,1,0,205,9,0,27
69,337,123,270,730,730,3,260,720,0,0,205,9,257,0
70,335,278,117,730,123,11,260,720,1,0,205,5,0,142
71,352,273,105,730,143,0,260,720,0,0,205,8,0,558
72,421,183,126,730,730,0,180,720,0,0,205,0,0,0
73,421,183,126,730,730,0,180,720,0,0,205,9,163,0
74,421,84,225,730,730,0,180,705,0,0,205,0,0,21
75,421,94,215,730,730,0,180,705,0,0,205,11,0,221
76,355,312,63,730,730,0,70,705,0,0,105,24,0,10
77,314,369,47,730,730,18,10,705,1,0,205,21,0,2842
78,329,285,116,730,730,0,1100,1100,0,0,205,9,146,0
79,327,200,203,730,730,0,1100,1085,0,0,205,9,45,0
80,326,336,68,730,172,0,1100,1085,0,0,205,23,0,1309
81,276,452,2,730,730,-4,960,1085,0,1,128,30,426,0
82,474,211,45,730,730,12,850,1085,1,0,205,21,0,627
83,328,211,191,730,730,11,660,1085,1,0,205,10,0,193
84,262,128,340,730,730,0,570,995,0,0,205,11,0,137
85,398,261,71,730,730,0,570,995,0,0,104,5,0,139
86,415,282,33,730,730,0,570,995,0,0,125,23,5,0
87,398,237,95,730,730,0,570,925,1,0,169,9,141,0
88,397,158,175,730,730,0,570,910,0,0,205,9,107,0
89,395,95,240,730,730,45,570,895,1,0,205,22,0,432
90,395,95,240,730,730,44,570,895,1,0,205,11,0,411
91,539,62,129,125,730,10,570,765,1,1,205,5,0,35
92,573,44,113,206,730,0,570,765,0,0,205,12,0,1527
93,24,662,44,730,730,7,570,765,0,1,205,24,0,138
94,24,567,139,730,730,0,570,750,0,0,205,11,575,0
95,154,527,49,730,730,9,570,620,1,1,205,20,174,0
96,131,511,88,730,730,27,540,620,1,0,205,5,0,1240
97,91,568,71,730,730,17,400,620,1,1,205,29,0,462
98,56,568,106,730,730,0,330,620,0,0,205,12,204,0
99,24,547,159,730,730,0,205,620,0,0,205,5,0,414
