,SelfDistCorner,EnemyDistCorner,SelfDistEnemy,SelfDistFireball,EnemyDistFireball,FrameAdvantage,SelfLife,EnemyLife,InCombo,EnemyInCombo,EnemyY,Option,RW,RS
0,301,238,191,730,730,11,515,850,1,0,205,10,0,180
1,146,378,206,730,730,11,280,850,1,0,205,0,0,122
2,146,378,206,730,730,5,280,850,1,0,205,0,0,92
3,146,382,202,730,730,0,280,850,0,0,205,10,98,0
4,146,342,242,730,730,0,280,835,0,0,205,9,87,0
5,145,309,276,730,730,5,280,820,0,0,205,10,207,0
6,143,300,287,730,730,13,280,820,1,0,205,11,486,0
7,280,300,150,62,730,35,280,820,1,0,205,5,0,466
8,280,300,150,65,730,36,280,820,1,0,205,22,0,639
9,179,300,251,74,730,3,190,820,1,1,205,27,0,262
10,84,334,312,730,730,0,100,820,0,0,205,9,0,18
11,82,324,324,730,730,0,100,820,0,0,205,11,0,70
12,107,343,280,109,730,5,10,820,1,1,205,29,0,2477
13,284,195,251,730,730,1,1100,1085,0,0,205,10,182,0
14,282,183,265,730,730,11,1100,1085,1,0,205,10,0,52
15,281,317,132,730,67,0,1100,1085,0,0,185,11,0,375
16,195,324,211,730,730,0,990,1085,0,0,205,9,286,0
17,194,319,217,730,730,50,990,995,0,0,141,9,467,0
18,248,209,273,730,14,10,990,995,1,0,205,0,0,125
19,248,209,273,730,11,4,990,995,1,0,205,9,0,64
20,248,218,264,730,24,0,990,980,0,0,100,11,0,169
21,384,284,62,730,241,0,990,980,0,0,106,18,78,0
22,384,284,62,730,730,20,990,980,1,0,151,23,0,501
23,333,284,113,730,730,17,860,980,1,0,205,3,0,69
24,333,159,238,730,730,44,860,865,1,0,205,22,0,414
25,333,159,238,730,730,43,860,865,1,0,205,11,0,394
26,476,126,128,130,730,10,860,735,1,1,205,10,312,0
27,476,24,230,730,730,0,860,720,0,0,205,10,21,0
28,475,31,224,730,730,17,860,705,0,0,205,9,186,0
29,473,24,233,730,730,12,860,705,1,0,205,5,0,131
30,517,27,186,730,730,0,860,705,0,0,195,9,0,3
31,507,178,45,730,203,20,860,705,1,0,205,18,0,989
32,318,165,247,51,730,-3,740,705,1,1,205,30,0,255
33,223,263,244,730,730,0,650,705,0,0,205,10,51,0
34,222,417,91,730,108,0,650,705,0,0,205,5,21,0
35,238,417,75,730,127,0,650,705,0,0,205,14,0,839
36,196,474,60,730,730,-4,510,705,0,1,205,28,0,511
37,161,474,95,730,730,0,460,705,0,0,205,3,979,0
38,180,424,126,730,73,10,460,565,1,0,205,0,0,137
39,180,424,126,730,92,4,460,565,1,0,205,10,0,1099
40,24,600,106,730,730,-4,300,565,0,1,205,30,0,271
41,46,606,78,730,730,4,300,565,1,0,205,13,1487,0
42,502,156,72,730,730,30,270,565,1,0,205,0,0,714
43,502,156,72,730,730,24,270,565,1,0,205,16,0,619
44,473,148,109,730,730,0,100,565,0,0,205,7,0,30
45,450,145,135,730,730,0,100,565,0,0,205,22,0,1781
46,450,145,135,730,730,0,100,565,0,0,205,10,0,1780
47,255,289,186,730,730,0,975,1100,0,0,205,11,0,346
48,24,646,60,730,730,27,545,1100,1,1,205,29,0,758
49,24,598,108,730,730,0,460,1070,0,0,205,8,0,579
50,86,575,69,730,730,0,430,1070,0,0,205,21,0,17
51,86,540,104,730,730,8,430,990,1,0,205,16,0,370
52,86,526,118,730,730,0,430,990,0,0,205,14,519,0
53,236,351,143,730,730,10,430,820,1,0,205,10,0,25
54,234,278,218,730,730,0,430,805,0,0,205,5,0,1
55,278,319,133,730,730,0,430,805,0,0,120,11,0,110
56,336,324,70,730,730,7,430,805,1,0,205,21,0,270
57,269,324,137,730,730,0,260,805,0,0,205,5,0,301
58,313,360,57,730,730,0,260,805,0,0,137,19,42,0
59,417,297,16,730,730,4,260,805,1,0,125,20,364,0
60,417,300,13,730,730,5,260,805,1,0,120,22,442,0
61,417,293,20,730,730,3,260,805,1,0,131,21,476,0
62,543,137,50,730,730,8,260,745,1,1,205,18,0,282
63,519,137,74,730,730,0,230,745,0,0,205,7,225,0
64,454,137,139,730,730,0,160,745,0,0,205,10,360,0
65,453,56,221,730,730,0,160,655,0,0,205,9,0,33
66,451,59,220,730,730,0,160,655,0,0,195,9,230,0
67,418,196,116,730,173,19,115,655,1,0,205,8,0,1259
68,488,166,76,730,730,0,85,655,0,0,205,3,0,307
69,458,166,106,730,730,0,5,655,0,0,205,3,974,0
70,476,116,138,730,169,2,5,515,1,0,205,0,0,45
71,476,116,138,730,188,0,5,515,0,0,205,0,0,277
72,477,116,137,730,62,10,5,515,1,0,205,9,0,503
73,476,116,138,730,207,0,5,515,0,0,205,11,0,2831
74,264,301,165,730,730,0,975,1100,0,0,205,9,93,0
75,262,253,215,730,730,0,975,1085,0,0,205,11,0,329
76,24,625,81,730,730,21,545,1085,1,1,205,31,177,0
77,168,450,112,730,730,10,545,915,1,0,205,0,0,563
78,168,450,112,730,730,4,545,915,1,0,205,15,435,0
79,168,470,92,730,730,50,545,915,1,0,109,13,0,368
80,302,387,41,730,730,50,545,825,0,1,121,20,56,0
81,363,323,44,730,730,10,545,825,1,0,205,34,0,119
82,370,285,75,730,730,3,545,825,0,0,205,5,25,0
83,380,282,68,730,730,0,545,825,0,0,205,25,0,138
84,364,282,84,730,730,27,515,825,1,0,205,7,0,1255
85,314,370,46,730,730,-4,375,825,0,1,205,31,562,0
86,453,200,77,730,730,10,375,655,1,0,205,14,362,0
87,604,25,101,730,730,10,375,485,1,0,205,8,0,588
88,463,193,74,730,730,-4,205,485,0,1,205,27,97,0
89,379,137,214,730,730,0,205,485,0,0,205,9,24,0
90,378,286,66,730,174,0,205,485,0,0,205,24,39,0
91,378,248,104,730,730,2,205,405,1,0,205,13,111,0
92,204,471,55,730,730,6,205,405,1,0,205,23,155,0
93,204,407,119,730,730,0,205,335,0,0,205,13,154,0
94,224,424,82,730,730,19,95,335,1,0,205,3,0,610
95,194,424,112,730,730,0,15,335,0,0,205,16,0,212
96,194,358,178,730,730,0,15,335,0,0,205,10,149,0
97,192,281,257,730,730,6,15,320,0,0,205,11,282,0
98,429,249,52,730,730,9,1100,970,1,1,205,21,382,0
99,449,201,80,730,730,-9,1100,890,1,1,205,0,329,0
