,SelfDistCorner,EnemyDistCorner,SelfDistEnemy,SelfDistFireball,EnemyDistFireball,FrameAdvantage,SelfLife,EnemyLife,InCombo,EnemyInCombo,EnemyY,Option,RW,RS
0,211,408,111,730,730,0,770,920,0,0,205,7,0,38
1,187,406,137,730,730,0,770,920,0,0,205,10,145,0
2,184,320,226,730,730,0,770,905,0,0,205,11,0,327
3,632,53,45,730,730,-4,590,905,0,1,205,26,66,0
4,614,53,63,730,730,0,590,905,0,0,205,24,385,0
5,564,104,62,730,730,4,450,735,1,1,205,31,445,0
6,662,24,44,730,730,10,450,565,1,0,205,34,0,185
7,631,24,75,730,730,3,450,565,0,0,205,12,26,0
8,659,24,47,730,730,7,450,565,0,1,205,24,0,223
9,505,24,201,730,730,11,260,550,1,0,205,11,0,447
10,284,195,251,730,730,1,1100,1085,0,0,205,0,687,0
11,284,195,251,730,730,0,1100,1085,0,0,205,11,289,0
12,427,165,138,107,730,11,1100,955,1,1,205,22,693,0
13,427,162,141,110,730,10,1100,955,1,0,205,9,540,0
14,564,85,81,730,730,7,1100,955,1,0,205,13,0,1660
15,24,582,124,29,730,29,930,955,1,1,205,27,0,80
16,24,582,124,730,730,2,915,955,1,0,205,5,105,0
17,24,582,124,730,730,3,915,955,1,0,205,22,331,0
18,160,445,125,730,730,0,915,955,1,0,205,0,265,0
19,160,445,125,730,730,16,915,955,1,0,205,0,0,81
20,160,445,125,730,730,19,915,955,1,0,205,22,0,20
21,160,445,125,730,730,18,915,955,1,0,205,22,0,4
22,160,445,125,730,730,17,915,955,1,0,205,22,4,0
23,176,482,72,730,730,0,855,955,0,0,205,14,519,0
24,326,307,97,730,730,10,855,785,1,0,205,0,0,126
25,326,307,97,730,730,4,855,785,1,0,205,0,0,487
26,326,307,97,730,730,0,855,785,0,0,205,16,200,0
27,231,252,247,730,730,0,765,635,0,0,205,0,0,0
28,231,252,247,730,730,0,765,635,0,0,205,10,150,0
29,229,417,84,730,174,0,765,635,1,0,205,5,0,292
30,231,364,135,730,64,0,765,635,0,0,106,10,0,582
31,246,417,67,730,193,0,765,635,0,0,205,20,0,465
32,246,417,67,730,730,11,765,635,1,0,205,25,0,385
33,214,417,99,730,730,25,715,635,1,0,205,7,0,1224
34,159,417,154,37,730,22,575,635,1,1,205,26,0,75
35,69,418,243,730,730,0,560,635,0,0,205,0,0,0
36,69,418,243,730,730,0,560,635,0,0,205,11,751,0
37,110,418,202,730,730,11,470,635,1,0,205,9,0,36
38,109,355,266,730,730,4,470,620,0,0,205,0,8,0
39,109,348,273,730,730,0,470,620,0,0,205,5,316,0
40,143,348,239,156,730,37,470,620,1,0,205,5,0,220
41,188,348,194,64,730,22,470,620,1,0,205,5,0,460
42,106,360,264,730,730,0,380,620,0,0,205,10,232,0
43,103,494,133,730,124,0,380,620,0,0,185,5,0,341
44,146,469,115,730,146,0,380,620,0,0,131,16,50,0
45,104,431,195,730,4,0,380,620,0,0,100,10,11,0
46,146,364,220,730,136,0,380,620,1,0,205,0,16,0
47,146,368,216,730,137,0,380,620,1,0,194,22,0,60
48,283,337,110,730,730,0,380,620,0,0,205,8,0,696
49,346,316,68,730,730,0,350,620,0,0,205,17,0,422
50,254,311,165,730,730,11,160,620,1,0,205,10,0,12
51,252,229,249,730,730,5,160,605,0,0,205,11,391,0
52,222,186,322,730,730,42,10,475,1,0,205,10,0,710
53,220,217,293,730,730,0,10,475,0,0,205,10,414,0
54,219,380,131,730,68,20,10,475,1,0,137,5,0,2893
55,284,195,251,730,730,0,1100,1085,0,0,205,22,0,92
56,284,195,251,730,730,0,1100,1085,0,0,205,9,0,126
57,291,179,260,36,730,-4,1010,1085,0,1,205,31,169,0
58,228,245,257,11,730,-4,920,1085,0,1,205,30,0,718
59,250,257,223,730,730,6,920,1085,1,0,205,22,847,0
60,250,257,223,730,730,5,920,1085,1,0,205,22,851,0
61,250,257,223,730,730,4,920,1085,1,0,205,22,857,0
62,250,257,223,730,730,3,920,1085,1,0,205,10,110,0
63,292,228,210,730,730,11,830,1085,1,0,205,11,0,237
64,295,375,60,730,730,-4,785,1085,0,1,205,29,0,130
65,262,375,93,730,730,0,735,1085,0,0,205,0,0,311
66,262,375,93,730,730,16,735,1085,1,0,205,14,0,582
67,225,375,130,730,730,0,635,1085,0,0,205,0,0,0
68,225,375,130,730,730,0,635,1085,0,0,205,10,357,0
69,225,297,208,730,730,0,635,995,0,0,205,0,0,29
70,225,310,195,730,730,0,635,995,0,0,205,10,0,247
71,24,566,140,4,730,16,265,995,1,1,205,29,85,0
72,24,566,140,730,730,0,250,995,0,0,205,10,153,0
73,24,474,232,730,730,0,250,980,0,0,205,5,304,0
74,68,474,188,101,730,37,250,980,1,0,205,11,61,0
75,211,438,81,730,730,9,250,850,1,1,205,0,0,402
76,211,426,93,730,730,3,250,850,1,0,205,3,0,126
77,211,305,214,138,730,39,250,835,1,0,205,11,0,413
78,355,274,101,170,730,11,250,835,0,1,205,8,0,386
79,456,229,45,730,730,7,250,835,1,0,205,20,0,384
80,429,229,72,730,730,5,190,835,1,1,205,0,104,0
81,432,229,69,730,730,7,220,835,1,0,205,21,28,0
82,409,197,124,730,730,4,190,795,1,0,205,9,766,0
83,408,102,220,730,730,42,190,780,1,0,205,5,0,514
84,451,102,177,63,730,27,190,780,1,0,205,10,0,705
85,355,102,273,195,730,39,100,780,1,0,205,10,0,362
86,353,103,274,730,730,0,100,780,0,0,205,5,340,0
87,397,103,230,150,730,38,100,780,1,0,205,10,0,51
88,395,103,232,137,730,35,100,780,1,0,205,22,0,524
89,395,103,232,133,730,34,100,780,1,0,205,11,0,265
90,532,84,114,199,730,20,100,780,1,0,205,7,0,172
91,509,84,137,210,730,12,100,780,1,0,205,5,151,0
92,553,82,95,730,730,0,100,780,0,0,205,5,41,0
93,571,79,80,730,730,0,100,780,0,0,205,14,159,0
94,662,24,44,371,730,10,100,610,1,0,205,33,0,2556
95,284,195,251,730,730,1,1100,1085,0,0,205,10,27,0
96,282,195,253,730,730,2,1100,1085,1,0,205,0,611,0
97,282,195,253,730,730,44,1100,1085,1,0,205,0,0,406
98,282,195,253,171,730,38,1100,1085,1,0,205,9,0,375
99,282,231,217,730,730,0,1100,1085,0,0,175,0,0,42
