,SelfDistCorner,EnemyDistCorner,SelfDistEnemy,SelfDistFireball,EnemyDistFireball,FrameAdvantage,SelfLife,EnemyLife,InCombo,EnemyInCombo,EnemyY,Option,RW,RS
0,486,40,204,730,730,42,1100,855,1,0,205,5,0,521
1,530,40,160,46,730,27,1100,855,1,0,205,22,0,222
2,440,40,250,730,730,0,1085,855,0,0,205,5,4,0
3,530,40,160,43,730,26,1100,855,1,0,205,9,0,249
4,483,76,171,730,730,0,1085,855,0,0,131,0,0,42
5,483,97,150,730,730,0,1085,855,0,0,106,9,0,272
6,397,240,93,730,730,50,955,855,1,0,187,14,0,328
7,432,188,110,730,148,17,955,855,1,0,205,9,0,157
8,549,100,81,730,730,10,955,685,1,0,205,0,0,539
9,549,100,81,730,730,4,955,685,1,0,205,3,921,0
10,569,52,109,730,89,10,955,545,1,0,205,3,0,697
11,535,53,142,730,730,0,905,545,0,0,205,9,0,479
12,222,289,219,61,730,9,535,545,1,1,205,30,0,375
13,127,351,252,730,730,0,445,545,0,0,205,22,0,148
14,127,354,249,730,730,0,445,545,0,0,205,22,0,174
15,127,357,246,730,730,0,445,545,0,0,205,9,0,506
16,24,543,163,730,730,0,305,545,0,0,205,0,0,36
17,24,561,145,730,730,0,305,545,0,0,205,0,0,27
18,24,579,127,730,730,0,305,545,0,0,205,9,151,0
19,24,488,218,730,730,0,305,530,0,0,205,5,12,0
20,68,520,142,730,730,0,305,530,0,0,143,11,0,383
21,24,608,98,730,730,25,80,530,1,0,205,3,0,2821
22,284,186,260,730,730,0,1100,1085,0,0,205,10,88,0
23,282,186,262,730,730,6,1100,1085,1,0,205,5,637,0
24,326,186,218,730,730,44,1100,1085,1,0,205,5,0,512
25,371,186,173,53,730,29,1100,1085,1,0,205,5,0,455
26,282,186,262,730,730,0,1010,1085,0,0,205,11,0,187
27,239,383,108,730,730,0,880,1085,0,0,205,3,0,716
28,189,333,208,78,730,18,740,985,1,1,205,30,0,213
29,92,388,250,10,730,-4,650,985,0,1,205,28,672,0
30,24,382,324,250,730,40,635,985,1,0,205,11,0,457
31,49,426,255,65,730,-1,545,985,1,1,205,30,0,217
32,24,412,294,182,730,31,455,985,1,0,205,9,0,317
33,24,477,229,730,730,0,455,985,0,0,205,10,0,63
34,24,659,47,730,730,-4,150,985,0,1,205,29,83,0
35,24,621,85,730,730,20,120,985,1,0,205,8,0,1002
36,86,576,68,730,730,19,90,985,1,0,205,24,1039,0
37,86,576,68,730,730,20,90,985,1,0,205,22,1043,0
38,464,225,41,730,730,0,60,985,0,0,100,24,0,2885
39,284,285,161,730,730,0,975,1100,0,0,205,5,9,0
40,328,320,82,730,730,0,975,1100,0,0,143,0,0,42
41,328,351,51,730,730,0,975,1100,0,0,104,19,220,0
42,328,344,58,730,730,0,975,1100,0,0,109,23,360,0
43,328,348,54,730,730,0,975,1100,0,0,106,23,366,0
44,328,341,61,730,730,0,975,1100,0,0,112,22,497,0
45,435,260,35,730,730,50,975,1010,0,1,71,21,96,0
46,519,166,45,730,730,-13,975,1010,0,1,205,0,215,0
47,499,135,96,730,730,8,975,1010,1,0,205,5,0,338
48,516,135,79,730,730,15,975,1010,1,0,205,15,121,0
49,516,86,128,730,730,0,975,885,0,0,205,0,0,21
50,516,93,121,730,730,0,975,885,0,0,185,9,0,19
51,209,331,190,6,730,1,705,885,1,1,205,31,40,0
52,111,571,48,730,730,15,615,885,1,1,205,27,0,536
53,81,571,78,730,730,16,615,885,1,0,205,14,0,542
54,53,571,106,730,730,25,535,885,1,0,205,0,0,125
55,53,571,106,730,730,19,535,885,1,0,205,7,0,178
56,39,571,120,730,730,11,535,885,1,0,205,0,0,561
57,39,571,120,730,730,5,535,885,1,0,205,15,0,338
58,39,543,148,730,730,0,535,885,0,0,205,9,43,0
59,24,662,44,730,215,0,535,885,1,0,205,19,0,55
60,25,661,44,730,210,0,535,885,1,0,194,22,1623,0
61,24,661,45,730,219,0,535,885,1,0,205,21,1629,0
62,567,109,54,730,730,20,535,885,1,0,205,19,0,374
63,567,109,54,730,730,19,535,885,1,0,205,17,0,1869
64,567,109,54,730,730,0,535,885,0,1,205,22,0,1377
65,24,623,83,730,730,7,505,885,1,0,205,3,875,0
66,44,573,113,730,85,10,505,745,1,0,205,7,0,195
67,24,573,133,730,110,2,505,745,1,0,205,5,786,0
68,68,580,82,730,164,50,505,745,1,0,161,0,0,455
69,68,586,76,730,189,50,505,745,1,0,144,16,0,687
70,68,455,207,730,175,0,505,595,1,0,151,9,0,620
71,66,481,183,730,730,0,505,595,0,0,101,10,318,0
72,177,459,94,730,730,10,505,505,1,0,205,8,0,126
73,161,459,110,730,730,0,475,505,0,0,205,12,560,0
74,297,376,57,730,730,8,475,395,1,1,205,20,0,253
75,274,360,96,730,730,0,445,395,0,0,205,3,977,0
76,293,310,127,730,75,9,445,255,1,0,205,0,0,104
77,293,310,127,730,72,10,445,255,1,0,205,22,0,665
78,147,506,77,730,730,23,275,255,1,1,205,30,0,1194
79,97,585,48,730,730,-4,135,255,0,1,205,29,81,0
80,67,585,78,730,730,17,135,255,1,0,205,15,0,556
81,37,584,109,730,730,0,55,255,0,0,205,8,0,348
82,145,469,116,730,730,1,55,255,1,0,143,5,46,0
83,162,448,120,730,730,0,55,255,1,0,194,12,0,2236
84,285,285,160,730,730,0,1100,1100,0,0,205,11,626,0
85,422,247,61,730,730,10,1100,970,1,0,205,24,0,838
86,422,251,57,730,730,11,1100,970,1,1,205,22,0,570
87,133,480,117,730,730,0,1020,970,0,0,205,16,0,265
88,133,497,100,730,730,0,1020,970,0,0,205,7,0,12
89,111,486,133,730,730,0,1020,970,0,0,205,10,206,0
90,108,374,248,730,730,0,1020,955,0,0,205,22,0,85
91,108,374,248,730,730,0,1020,955,0,0,205,10,0,113
92,124,552,54,730,730,14,930,955,1,1,205,28,0,262
93,92,552,86,730,730,0,930,955,0,0,205,7,0,455
94,70,552,108,730,730,0,930,955,0,0,205,16,0,259
95,70,497,163,730,730,0,930,955,0,0,205,11,310,0
96,129,513,88,730,730,0,900,955,0,0,205,12,1440,0
97,205,430,95,730,730,18,870,845,1,0,205,0,0,248
98,172,430,128,730,730,1,870,845,1,0,205,5,89,0
99,215,405,110,730,730,0,870,845,0,0,205,7,12,0
