,SelfDistCorner,EnemyDistCorner,SelfDistEnemy,SelfDistFireball,EnemyDistFireball,FrameAdvantage,SelfLife,EnemyLife,InCombo,EnemyInCombo,EnemyY,Option,RW,RS
0,68,573,89,730,730,0,205,620,0,0,205,16,498,0
1,68,519,143,730,730,2,205,470,1,0,205,0,2,0
2,68,519,143,730,730,3,205,470,1,0,205,22,100,0
3,29,518,183,730,730,42,80,470,1,0,205,9,0,709
4,28,546,156,730,730,0,80,470,0,0,137,10,0,8
5,24,633,73,730,147,13,50,470,1,0,205,16,0,2411
6,267,298,165,730,730,0,975,1100,0,0,205,10,121,0
7,266,227,237,730,730,0,975,1085,0,0,205,9,0,18
8,264,231,235,730,730,0,975,1085,0,0,205,0,0,24
9,264,244,222,730,730,0,975,1085,0,0,195,0,0,11
10,264,240,226,730,730,0,975,1085,0,0,205,22,0,345
11,24,633,73,730,730,18,545,1085,1,1,205,28,0,216
12,24,602,104,730,730,4,545,1085,1,0,205,12,1824,0
13,551,135,44,730,730,11,545,975,1,1,205,23,249,0
14,541,81,108,730,730,0,545,835,0,0,205,12,0,1038
15,605,46,79,730,730,27,515,725,1,0,205,3,0,848
16,542,46,142,730,730,0,375,725,0,0,205,22,616,0
17,542,46,142,730,730,0,375,725,0,0,205,9,430,0
18,679,24,27,730,730,0,375,585,1,1,114,21,45,0
19,638,24,68,730,730,26,345,585,1,0,205,21,0,916
20,580,105,45,730,730,-4,205,585,0,1,205,28,0,306
21,284,195,251,730,730,1,1100,1085,0,0,205,22,0,152
22,284,195,251,730,730,0,1100,1085,0,0,205,22,0,178
23,284,196,250,730,730,0,1100,1085,0,0,205,9,0,478
24,230,392,108,730,730,0,990,1085,0,0,205,7,263,0
25,208,392,130,730,730,21,990,1085,1,0,205,0,0,125
26,208,392,130,730,730,15,990,1085,1,0,205,10,0,82
27,208,301,221,730,730,0,990,1070,0,0,205,0,0,38
28,208,319,203,730,730,0,990,1070,0,0,158,9,224,0
29,208,354,168,730,730,50,990,980,0,0,153,0,56,0
30,208,319,203,730,730,50,990,980,0,0,187,5,89,0
31,208,324,198,730,730,50,990,980,0,0,181,22,497,0
32,382,304,44,730,730,50,990,980,1,0,205,22,0,1573
33,207,456,67,730,730,-4,820,980,0,1,205,26,213,0
34,24,552,154,49,730,26,660,980,1,1,205,31,0,326
35,24,587,119,730,730,-4,570,980,0,1,205,26,179,0
36,24,571,135,730,730,8,570,980,1,0,205,9,235,0
37,24,491,215,730,730,0,570,890,0,0,205,22,0,347
38,24,495,211,730,730,0,570,890,0,0,195,11,0,341
39,24,643,63,730,730,4,240,890,1,1,205,26,0,29
40,24,626,80,730,730,0,240,890,0,0,205,16,0,193
41,24,593,113,730,730,23,190,890,1,0,205,9,22,0
42,24,499,207,730,730,0,190,800,0,0,205,0,0,32
43,24,513,193,730,730,0,190,800,0,0,166,9,226,0
44,24,580,126,730,214,0,45,800,0,0,205,0,28,0
45,24,564,142,730,223,0,45,800,0,0,205,10,204,0
46,24,510,196,730,243,0,45,800,0,0,205,22,0,2333
47,24,510,196,730,247,0,45,800,0,0,205,10,0,2357
48,284,195,251,730,730,1,1100,1085,0,0,205,5,342,0
49,327,197,206,130,730,39,1100,1085,1,0,205,11,0,20
50,471,161,98,178,730,9,1100,955,1,1,205,0,0,90
51,471,148,111,197,730,3,1100,955,1,0,205,7,0,54
52,457,145,128,208,730,0,1100,955,0,0,205,22,506,0
53,457,145,128,211,730,0,1100,955,0,0,205,22,491,0
54,457,145,128,214,730,0,1100,955,0,0,205,10,105,0
55,559,127,44,730,730,0,1100,955,0,0,205,24,358,0
56,549,48,133,730,730,0,1100,785,0,0,143,0,0,42
57,549,69,112,730,730,0,1100,785,0,0,112,8,0,2152
58,64,561,105,730,730,0,1100,785,0,0,205,5,232,0
59,81,544,105,730,730,0,1100,785,0,0,205,14,0,128
60,57,531,142,730,730,0,1070,785,0,0,205,5,126,0
61,95,486,149,730,730,0,1070,785,0,0,205,10,179,0
62,93,388,249,730,730,7,1070,770,0,0,205,10,81,0
63,92,373,265,730,730,4,1070,770,1,0,205,9,189,0
64,90,523,117,730,123,0,1070,770,1,0,205,14,0,781
65,83,564,83,730,730,-4,930,770,0,1,205,26,210,0
66,48,564,118,730,730,8,930,770,1,0,205,7,0,158
67,26,564,140,730,730,0,930,770,0,0,205,11,365,0
68,85,547,98,730,730,27,900,770,1,0,205,7,0,194
69,62,547,121,730,730,19,900,770,1,0,205,22,0,86
70,62,547,121,730,730,18,900,770,1,0,205,9,0,373
71,167,519,44,730,730,0,900,770,0,0,205,19,278,0
72,163,493,74,730,730,3,900,690,1,0,205,0,225,0
73,163,492,75,730,730,19,900,690,1,0,205,5,0,566
74,135,492,103,730,730,25,820,690,1,0,205,0,0,246
75,100,492,138,730,730,8,820,690,1,0,205,11,192,0
76,227,446,57,163,730,11,820,560,1,1,205,19,144,0
77,227,404,99,730,730,3,820,480,1,0,205,15,0,60
78,95,402,233,730,730,2,630,480,1,0,205,9,0,248
79,63,539,128,730,186,17,585,480,1,0,205,0,0,141
80,63,539,128,730,211,11,585,480,1,0,205,11,0,157
81,110,572,48,730,730,16,555,480,1,0,205,20,0,521
82,80,572,78,730,730,18,475,480,1,0,205,7,0,285
83,43,570,117,730,730,0,475,480,0,0,205,8,0,538
84,151,492,87,730,730,0,475,480,0,0,205,13,1152,0
85,438,234,58,234,730,6,475,480,1,0,205,17,1199,0
86,462,108,160,336,730,50,475,360,1,0,153,0,287,0
87,462,60,208,355,730,50,475,360,1,0,174,0,0,516
88,586,28,116,730,730,9,475,360,1,0,205,5,0,104
89,600,28,102,730,730,3,475,360,1,0,205,12,0,548
90,434,71,225,26,730,-4,325,360,0,1,205,31,91,0
91,336,206,188,61,730,19,235,360,1,1,205,31,0,223
92,238,279,213,86,730,19,145,360,1,1,205,30,0,905
93,138,350,242,90,730,11,55,360,1,1,205,27,0,2451
94,329,285,116,730,730,0,1100,1100,0,0,205,3,0,0
95,329,285,116,730,730,0,1100,1100,0,0,205,13,141,0
96,248,420,62,730,730,0,1100,1100,0,0,205,20,165,0
97,248,354,128,730,730,0,1100,1100,0,0,205,5,439,0
98,291,338,101,730,730,23,1100,1100,1,0,205,5,0,86
99,309,338,83,730,730,17,1100,1100,1,0,205,5,0,307
