,SelfDistCorner,EnemyDistCorner,SelfDistEnemy,SelfDistFireball,EnemyDistFireball,FrameAdvantage,SelfLife,EnemyLife,InCombo,EnemyInCombo,EnemyY,Option,RW,RS
0,93,443,194,730,730,11,865,1010,1,0,205,11,0,45
1,92,474,164,730,730,41,740,1010,1,0,205,11,0,333
2,236,439,55,214,730,9,740,880,1,1,205,23,592,0
3,236,363,131,730,730,0,740,740,0,0,205,0,358,0
4,236,363,131,730,730,25,740,740,1,0,205,11,198,0
5,371,312,47,730,730,8,740,610,1,1,205,17,1122,0
6,390,180,160,730,730,50,740,490,1,0,153,5,0,565
7,568,100,62,730,730,6,740,490,1,0,205,24,289,0
8,568,49,113,730,730,0,740,320,0,0,143,9,0,499
9,470,152,108,730,730,25,580,320,1,0,205,3,581,0
10,490,102,138,730,60,10,580,180,1,0,205,5,0,554
11,535,102,93,730,107,0,580,180,0,0,205,16,0,287
12,535,102,93,730,730,0,580,180,0,0,205,16,0,312
13,407,102,221,730,730,6,390,180,1,0,205,0,0,102
14,407,103,220,730,730,0,390,180,0,0,205,0,0,36
15,407,121,202,730,730,0,390,180,0,0,205,9,115,0
16,407,64,259,730,730,0,390,165,0,0,205,10,0,34
17,405,64,261,730,730,0,390,165,0,0,205,0,0,35
18,405,81,244,730,730,0,390,165,0,0,205,5,0,6
19,440,120,170,730,730,0,390,165,0,0,151,5,0,12
20,485,172,73,730,730,0,390,165,0,0,101,14,2458,0
21,285,285,160,730,730,0,1100,1100,0,0,205,5,49,0
22,320,285,125,730,730,0,1100,1100,0,0,205,9,146,0
23,318,195,217,730,730,0,1100,1085,0,0,205,11,0,262
24,24,511,195,18,730,3,670,1085,1,1,205,30,0,303
25,24,590,116,730,730,0,580,1085,0,0,205,3,194,0
26,24,474,232,730,730,45,580,970,1,0,205,5,0,495
27,24,474,232,730,730,46,580,970,1,0,205,22,0,740
28,161,474,95,104,730,0,580,970,0,0,205,5,458,0
29,177,474,79,139,730,0,580,970,0,0,205,8,0,349
30,248,437,45,730,730,8,580,970,1,0,205,23,0,228
31,225,437,68,730,730,18,550,970,1,0,205,24,0,351
32,225,437,68,730,730,19,550,970,1,0,205,22,0,808
33,76,437,217,730,730,5,380,970,1,0,205,9,0,101
34,42,577,111,730,212,26,335,970,1,0,205,14,88,0
35,192,402,136,730,730,10,335,800,1,0,205,0,0,124
36,192,402,136,730,730,4,335,800,1,0,205,11,189,0
37,151,381,198,730,730,11,215,800,1,0,205,22,0,443
38,151,381,198,730,730,10,215,800,1,0,205,22,0,428
39,151,381,198,730,730,9,215,800,1,0,205,9,0,483
40,255,304,171,730,730,0,975,1100,0,0,205,9,88,0
41,254,255,221,730,730,0,975,1085,0,0,205,10,74,0
42,252,391,87,730,112,0,975,1085,0,0,205,7,0,853
43,193,466,71,730,730,16,835,1085,1,1,205,27,136,0
44,159,466,105,730,730,1,835,1085,1,0,205,8,0,628
45,220,442,68,730,730,0,805,1085,0,0,205,18,171,0
46,220,425,85,730,730,5,805,1055,1,0,205,15,0,353
47,220,418,92,730,730,27,805,1055,1,0,205,8,0,1088
48,298,387,45,730,730,0,805,1055,0,0,205,17,272,0
49,298,387,45,730,730,0,805,1055,0,0,205,22,243,0
50,292,394,44,730,730,0,805,995,0,1,205,23,444,0
51,286,336,108,730,730,0,805,855,0,0,205,16,0,265
52,286,336,108,730,730,0,805,855,0,0,205,7,0,51
53,263,347,120,730,730,0,805,855,0,0,205,13,381,0
54,400,289,41,730,730,50,805,765,0,1,89,20,74,0
55,470,216,44,730,730,10,805,765,1,0,205,35,132,0
56,464,192,74,730,730,13,805,765,1,0,205,7,0,190
57,450,192,88,730,730,5,805,765,1,0,205,7,0,113
58,426,188,116,730,730,0,805,765,0,0,205,9,348,0
59,423,115,192,730,730,0,805,675,0,0,205,5,0,463
60,467,161,102,730,730,0,805,675,0,0,112,15,17,0
61,416,263,51,730,730,15,755,675,1,0,205,18,0,74
62,416,246,68,730,730,5,755,645,1,0,205,20,278,0
63,416,239,75,730,730,0,755,645,0,0,205,12,0,886
64,177,483,70,730,730,20,755,645,1,0,205,21,70,0
65,177,483,70,730,730,0,755,645,0,0,205,22,882,0
66,406,272,52,730,730,19,755,585,1,1,205,23,0,721
67,286,272,172,730,730,11,565,585,1,0,205,9,4,0
68,284,181,265,730,730,0,565,570,0,0,205,10,119,0
69,283,313,134,730,65,0,565,570,0,0,151,22,758,0
70,283,317,130,730,72,0,565,570,0,0,158,10,0,37
71,265,351,114,730,730,0,440,570,0,0,205,13,215,0
72,273,372,85,730,730,0,410,570,0,0,205,14,518,0
73,422,197,111,730,730,10,410,400,1,0,205,3,599,0
74,422,207,101,730,730,50,410,400,1,0,130,8,0,250
75,550,43,137,730,730,50,410,240,0,1,98,9,294,0
76,654,24,52,730,730,10,410,150,1,0,205,36,0,625
77,479,203,48,730,730,-4,250,150,0,1,102,27,0,491
78,406,241,83,730,730,0,140,150,0,0,205,5,0,175
79,385,241,104,730,730,0,90,150,0,0,205,0,282,0
80,385,241,104,730,730,20,90,150,1,0,205,12,0,615
81,183,503,44,730,730,8,90,40,1,1,205,20,0,194
82,161,524,45,730,730,0,90,40,0,0,205,21,83,0
83,181,489,60,730,730,-13,90,40,0,1,205,0,209,0
84,161,458,111,730,730,0,90,40,0,0,205,13,153,0
85,285,285,160,730,730,0,1100,1100,0,0,205,9,148,0
86,285,195,250,730,730,0,1100,1085,0,0,205,9,27,0
87,284,357,89,730,151,0,1100,1085,1,0,205,15,0,445
88,231,454,45,730,730,-4,960,1085,0,1,205,27,0,101
89,157,440,133,730,730,0,890,1085,0,0,205,5,136,0
90,200,395,135,730,730,0,890,1085,0,0,205,11,596,0
91,336,344,50,730,730,9,890,955,1,1,205,25,326,0
92,359,198,173,730,730,50,890,805,0,1,137,10,598,0
93,369,153,208,730,10,10,890,805,1,0,205,10,0,392
94,368,153,209,730,730,19,890,790,0,0,205,9,285,0
95,366,175,189,730,52,0,890,790,0,0,143,22,479,0
96,366,179,185,730,60,0,890,790,0,0,151,11,483,0
97,510,156,64,730,730,10,890,660,1,1,205,18,21,0
98,510,131,89,730,730,5,890,630,1,0,205,12,0,1063
99,72,614,44,730,730,12,890,520,1,1,205,21,286,0
