,SelfDistCorner,EnemyDistCorner,SelfDistEnemy,SelfDistFireball,EnemyDistFireball,FrameAdvantage,SelfLife,EnemyLife,InCombo,EnemyInCombo,EnemyY,Option,RW,RS
0,472,155,103,190,730,11,1100,955,1,1,205,3,364,0
1,472,133,125,730,730,15,1100,955,1,0,205,10,141,0
2,472,46,212,730,730,0,1100,865,0,0,195,9,0,337
3,418,267,45,730,730,-4,960,865,0,1,205,26,66,0
4,391,267,72,730,730,0,930,865,0,0,205,5,0,815
5,401,267,62,730,730,0,960,865,0,0,205,17,0,900
6,376,348,6,730,730,18,790,865,1,1,128,30,31,0
7,390,188,152,730,730,50,790,715,0,1,103,0,56,0
8,390,158,182,730,730,50,790,715,0,0,140,10,534,0
9,392,128,210,730,13,10,790,715,1,0,205,11,0,297
10,528,38,164,730,730,0,790,700,0,0,205,0,16,0
11,528,38,164,730,730,0,790,700,0,0,205,22,0,314
12,152,351,227,41,730,0,360,700,1,1,205,27,164,0
13,62,370,298,730,730,0,345,700,0,0,205,0,0,0
14,62,364,304,730,730,0,345,700,0,0,205,22,158,0
15,62,367,301,730,730,0,345,700,0,0,205,22,148,0
16,198,507,25,730,730,3,345,700,1,0,120,19,0,36
17,174,475,81,730,730,0,345,620,1,0,157,7,27,0
18,158,451,121,730,730,0,345,620,1,0,190,5,74,0
19,201,445,84,730,730,0,345,620,0,0,205,13,589,0
20,336,284,110,730,730,0,315,620,0,0,205,9,0,526
21,285,383,62,730,730,4,175,620,1,1,205,26,0,67
22,267,383,80,730,730,0,175,620,0,0,205,9,0,523
23,215,434,81,730,730,-4,35,620,0,1,205,27,67,0
24,215,432,83,730,730,0,35,620,0,0,205,14,0,140
25,198,432,100,730,730,0,5,620,0,0,205,3,977,0
26,217,382,131,730,68,10,5,480,1,0,205,22,0,2611
27,217,382,131,730,71,9,5,480,1,0,205,10,0,2977
28,284,195,251,730,730,0,1100,1085,0,0,205,11,280,0
29,427,165,138,88,730,11,1100,955,1,1,205,10,527,0
30,427,76,227,730,730,0,1100,865,0,0,205,5,0,2
31,471,116,143,730,730,0,1100,865,0,0,137,10,15,0
32,436,227,67,730,153,13,1055,865,1,0,205,18,0,308
33,403,204,123,730,208,0,1005,835,0,0,205,0,0,261
34,403,204,123,730,730,0,1005,835,0,0,205,11,308,0
35,416,234,80,730,730,0,895,835,0,0,205,9,0,512
36,364,319,47,730,730,-4,755,835,0,1,205,31,574,0
37,508,144,78,730,730,10,755,665,1,0,205,0,0,127
38,508,144,78,730,730,4,755,665,1,0,205,13,0,180
39,453,164,113,730,730,0,725,665,0,0,205,16,134,0
40,403,275,52,730,730,-4,585,665,0,1,205,30,514,0
41,426,145,159,730,730,50,585,515,0,1,137,9,597,0
42,436,100,194,730,48,10,585,515,1,0,205,22,0,829
43,436,100,194,730,52,9,585,515,1,0,205,10,0,848
44,360,306,64,730,730,-4,415,515,0,1,205,26,84,0
45,324,306,100,730,730,0,415,515,0,0,205,12,262,0
46,347,291,92,730,730,17,245,405,1,1,205,26,0,189
47,347,291,92,730,730,5,245,405,1,0,205,15,0,362
48,324,291,115,730,730,0,215,405,0,0,205,14,510,0
49,467,116,147,730,730,10,215,235,1,0,205,5,697,0
50,512,116,102,730,730,50,215,235,1,0,205,13,0,1128
51,366,24,340,730,730,-4,45,190,0,1,205,31,0,369
52,403,34,293,94,730,0,45,190,0,0,205,22,122,0
53,403,37,290,91,730,0,45,190,0,0,205,10,0,2150
54,329,285,116,730,730,0,1100,1100,0,0,205,3,0,16
55,329,285,116,730,730,0,1100,1100,0,0,205,7,295,0
56,312,285,133,730,730,23,1100,1100,1,0,205,10,20,0
57,309,195,226,730,730,0,1100,1010,0,0,205,5,8,0
58,309,192,229,730,730,0,1100,1010,0,0,205,22,0,202
59,24,631,75,730,730,24,670,1010,1,1,205,28,0,614
60,24,602,104,730,730,0,585,1010,0,0,205,3,0,162
61,24,700,6,730,730,0,585,1010,1,0,120,19,132,0
62,24,628,78,730,730,0,585,930,1,0,165,13,202,0
63,72,594,64,730,730,27,555,930,1,0,205,18,0,264
64,72,577,81,730,730,5,555,900,1,0,205,3,374,0
65,72,490,168,730,730,0,555,710,0,0,125,0,0,10
66,72,486,172,730,730,0,555,710,0,0,131,22,0,523
67,24,661,45,730,730,-4,510,710,0,1,120,30,516,0
68,47,531,152,730,730,50,510,560,0,1,90,22,257,0
69,47,501,182,730,730,50,510,560,0,0,128,11,571,0
70,34,652,44,730,730,-4,350,560,0,1,205,29,68,0
71,34,635,61,730,730,1,350,560,0,0,205,19,2,0
72,34,606,90,730,730,3,350,560,0,0,205,3,0,160
73,34,500,196,730,730,0,350,545,0,0,166,0,0,42
74,34,521,175,730,730,0,350,545,0,0,125,10,287,0
75,34,508,188,730,730,50,350,455,0,0,181,0,56,0
76,34,513,183,730,730,50,350,455,0,0,175,22,523,0
77,187,493,50,730,730,8,350,455,1,0,205,34,185,0
78,193,463,74,730,730,3,350,375,1,0,205,16,0,62
79,193,409,128,730,730,0,350,375,0,0,205,0,374,0
80,193,409,128,730,730,26,350,375,1,0,205,11,401,0
81,252,384,94,730,730,27,320,245,1,0,205,16,0,1248
82,202,482,46,730,730,-4,180,245,0,1,205,26,66,0
83,39,502,189,730,730,11,20,245,1,0,205,10,0,46
84,37,442,251,730,730,6,20,230,0,0,205,9,91,0
85,36,430,264,730,730,5,20,230,1,0,205,11,0,112
86,172,543,15,730,730,0,20,230,1,0,143,21,390,0
87,145,517,68,730,730,7,20,180,1,0,205,21,0,57
88,145,477,108,730,730,3,20,130,1,0,205,9,107,0
89,145,386,199,730,730,0,20,115,0,0,205,11,0,2246
90,429,249,52,730,730,9,1100,970,1,1,205,23,334,0
91,429,173,128,730,730,0,1100,830,0,0,205,0,0,13
92,429,175,126,730,730,0,1100,830,0,0,205,0,272,0
93,429,196,105,730,730,22,1100,830,1,0,151,12,0,992
94,315,317,98,730,730,0,990,830,0,0,205,12,313,0
95,390,256,84,730,730,25,960,720,1,0,205,5,0,1218
96,344,370,16,730,730,-4,820,720,0,1,110,29,433,0
97,406,279,45,730,730,11,710,720,1,0,205,17,0,608
98,406,279,45,730,730,12,710,720,1,0,205,22,0,625
99,260,279,191,730,730,11,520,720,1,0,205,10,308,0
