,SelfDistCorner,EnemyDistCorner,SelfDistEnemy,SelfDistFireball,EnemyDistFireball,FrameAdvantage,SelfLife,EnemyLife,InCombo,EnemyInCombo,EnemyY,Option,RW,RS
0,284,194,252,730,730,1,1100,1085,0,0,205,11,277,0
1,308,150,272,74,730,-4,1010,955,0,1,205,26,286,0
2,218,250,262,730,730,0,995,955,0,0,205,10,434,0
3,216,370,144,730,55,17,995,955,1,0,143,0,0,323
4,216,391,123,730,95,11,995,955,1,0,194,11,99,0
5,196,434,100,730,730,20,905,955,1,0,205,9,0,985
6,63,434,233,730,730,2,715,955,1,0,205,5,0,13
7,101,457,172,730,730,0,715,955,0,0,205,0,0,14
8,101,466,163,730,730,0,715,955,0,0,205,5,88,0
9,135,443,152,730,730,0,715,955,0,0,205,10,471,0
10,134,344,252,730,730,4,715,865,1,0,205,5,0,48
11,177,374,179,730,730,0,715,865,0,0,205,9,21,0
12,172,513,45,730,199,0,715,865,0,0,205,19,271,0
13,172,484,74,730,730,3,715,785,1,0,205,7,0,369
14,156,483,91,730,730,0,715,785,0,0,205,3,0,118
15,156,376,198,730,730,0,715,770,0,0,205,5,335,0
16,156,376,198,730,730,0,715,770,0,0,205,22,124,0
17,156,376,198,730,730,0,715,770,0,0,205,22,119,0
18,292,376,62,106,730,10,715,770,1,0,205,24,265,0
19,292,258,180,730,730,45,715,600,1,0,205,0,0,439
20,292,258,180,104,730,39,715,600,1,0,205,9,0,329
21,292,272,166,730,730,0,715,600,0,0,166,5,0,14
22,336,324,70,730,730,0,715,600,0,0,100,17,0,133
23,349,324,57,730,730,0,715,600,0,0,205,21,0,142
24,326,324,80,730,730,20,685,600,1,0,205,13,0,464
25,217,468,45,730,730,20,655,600,1,0,205,23,0,1441
26,28,466,236,59,730,3,535,600,1,1,205,30,0,295
27,24,465,241,122,730,29,445,600,1,0,205,5,0,536
28,24,465,241,730,730,0,355,600,0,0,205,22,0,328
29,24,465,241,730,730,0,355,600,0,0,205,11,0,328
30,24,517,189,19,730,5,185,600,1,1,205,27,404,0
31,24,517,189,78,730,31,170,600,1,0,205,11,0,419
32,24,517,189,31,730,9,80,600,1,1,205,29,179,0
33,24,517,189,78,730,31,65,600,1,0,205,0,0,177
34,24,517,189,53,730,25,65,600,1,0,205,22,0,71
35,24,517,189,49,730,24,65,600,1,0,205,10,0,54
36,24,517,189,730,730,0,50,600,0,0,205,9,0,0
37,24,517,189,730,730,0,50,600,0,0,205,11,759,0
38,83,515,132,730,730,0,20,470,0,0,205,5,0,485
39,127,555,48,730,730,0,20,470,0,0,205,23,259,0
40,127,486,117,730,730,0,20,400,0,0,205,9,0,1284
41,284,201,245,730,730,0,1100,1085,0,0,205,5,225,0
42,327,201,202,104,730,32,1100,1085,1,0,205,11,152,0
43,471,159,100,204,730,10,1100,955,1,1,205,7,109,0
44,457,142,131,215,730,2,1100,955,1,0,205,10,375,0
45,454,50,226,730,730,0,1100,940,0,0,205,11,0,115
46,419,190,121,730,730,0,970,940,0,0,205,11,0,136
47,315,356,59,730,730,0,860,940,0,0,107,18,24,0
48,315,359,56,730,730,0,860,940,0,0,110,18,28,0
49,315,363,52,730,730,0,860,940,0,0,114,24,71,0
50,315,352,63,730,730,0,860,940,0,0,105,22,0,4
51,269,349,112,730,730,0,810,940,0,0,205,3,54,0
52,269,300,161,730,730,0,810,940,0,0,205,22,589,0
53,269,297,164,730,730,0,810,940,0,0,205,11,584,0
54,409,264,57,730,730,10,810,810,1,1,205,23,321,0
55,409,187,134,730,730,0,810,670,0,0,205,0,0,0
56,409,187,134,730,730,0,810,670,0,0,205,0,636,0
57,409,187,134,730,730,43,810,670,1,0,205,10,0,723
58,314,187,229,730,730,4,720,670,1,0,205,22,209,0
59,314,187,229,730,730,3,720,670,1,0,205,11,231,0
60,458,154,118,163,730,10,720,540,1,1,205,14,0,878
61,442,243,45,730,730,-4,580,540,0,1,205,30,517,0
62,465,113,152,730,730,50,580,390,0,1,137,22,552,0
63,465,83,182,730,730,50,580,390,0,0,174,9,336,0
64,581,24,125,730,730,1,580,240,1,0,205,10,0,793
65,543,24,163,730,730,6,480,150,1,0,205,9,0,148
66,468,159,103,730,730,0,330,150,0,0,205,16,0,267
67,468,112,150,730,730,0,330,150,0,0,205,9,321,0
68,466,64,200,730,730,0,330,60,0,0,205,0,7,0
69,466,61,203,730,730,0,330,60,0,0,205,22,0,51
70,391,259,80,730,730,0,280,60,0,0,205,15,2346,0
71,285,285,160,730,730,0,1100,1100,0,0,205,9,166,0
72,350,316,64,730,730,17,1070,1100,1,0,205,24,0,623
73,314,316,100,730,730,0,970,1100,0,0,205,8,0,363
74,439,246,45,730,730,19,970,1090,1,1,205,25,0,626
75,182,503,45,730,730,-4,710,1090,0,1,205,28,0,264
76,125,503,102,730,730,0,630,1090,0,0,205,13,141,0
77,410,259,61,730,730,0,600,1090,0,0,205,24,367,0
78,410,188,132,730,730,0,600,920,0,0,205,5,52,0
79,454,201,75,730,730,0,600,920,0,0,205,14,520,0
80,605,26,99,730,730,10,600,750,1,0,205,12,0,1940
81,24,662,44,219,730,8,600,640,1,1,205,18,56,0
82,24,644,62,289,730,5,600,610,1,0,205,18,112,0
83,24,622,84,360,730,5,600,580,1,0,205,0,0,353
84,24,616,90,385,730,0,600,580,0,0,205,3,54,0
85,24,500,206,730,730,0,600,565,0,0,205,5,789,0
86,68,489,173,730,730,0,600,565,0,0,205,9,0,33
87,66,489,175,730,730,0,600,565,0,0,205,0,0,0
88,66,489,175,730,730,0,600,565,0,0,205,11,303,0
89,125,512,93,730,730,0,570,565,0,0,205,13,143,0
90,413,272,45,730,730,0,540,565,0,0,205,18,166,0
91,411,257,62,730,730,5,540,535,1,0,205,19,219,0
92,411,222,97,730,730,3,540,455,1,0,205,12,0,453
93,169,517,44,730,730,12,540,345,1,1,205,25,209,0
94,177,401,152,730,730,50,540,195,0,1,137,10,607,0
95,187,356,187,730,11,10,540,195,1,0,205,0,0,135
96,187,356,187,730,30,4,540,195,1,0,205,0,0,74
97,187,356,187,730,49,0,540,195,0,0,205,0,0,12
98,187,409,134,730,730,0,540,195,0,0,112,0,0,42
99,187,356,187,730,68,0,540,195,0,0,205,9,0,392
