,SelfDistCorner,EnemyDistCorner,SelfDistEnemy,SelfDistFireball,EnemyDistFireball,FrameAdvantage,SelfLife,EnemyLife,InCombo,EnemyInCombo,EnemyY,Option,RW,RS
0,333,358,39,730,730,50,990,995,0,1,103,25,408,0
1,356,198,176,730,730,50,990,845,0,1,134,5,112,0
2,519,153,58,730,730,5,990,845,1,0,205,38,0,547
3,358,309,63,730,730,-4,820,845,0,1,125,29,0,87
4,358,362,10,730,730,0,820,845,0,0,109,23,4,0
5,362,310,58,730,730,0,820,845,0,0,205,19,174,0
6,329,282,119,730,730,4,770,765,1,0,205,7,0,89
7,312,280,138,730,730,0,770,765,0,0,205,10,391,0
8,309,189,232,730,730,0,770,675,0,0,205,5,0,6
9,353,234,143,730,730,0,770,675,0,0,205,11,0,74
10,208,478,44,730,730,9,770,545,1,1,205,18,12,0
11,204,464,62,730,730,5,770,515,1,0,205,25,379,0
12,227,328,175,730,730,50,770,365,0,1,137,11,546,0
13,326,283,121,730,730,0,700,365,0,0,205,22,363,0
14,326,283,121,730,730,0,700,365,0,0,205,10,263,0
15,396,257,77,730,730,30,670,365,1,0,205,3,512,0
16,415,207,108,730,91,10,670,225,1,0,205,13,0,601
17,262,399,69,730,730,15,500,225,1,1,205,29,0,204
18,228,399,103,730,730,1,500,225,1,0,205,8,0,593
19,311,374,45,730,730,7,500,225,1,0,205,18,0,268
20,288,374,68,730,730,0,470,225,0,0,205,20,100,0
21,288,374,68,730,730,0,470,225,0,0,205,20,96,0
22,288,374,68,730,730,0,470,225,0,0,205,22,467,0
23,288,374,68,730,730,0,470,225,0,0,205,22,0,375
24,256,400,74,730,730,21,330,225,1,1,205,30,116,0
25,279,270,181,730,730,50,330,75,0,1,137,22,599,0
26,279,240,211,730,730,50,330,75,0,0,174,22,498,0
27,279,235,216,730,730,50,330,75,0,0,183,11,455,0
28,335,225,170,730,730,11,240,75,1,0,205,11,2386,0
29,284,195,251,730,730,0,1100,1085,0,0,205,5,353,0
30,284,195,251,730,730,0,1100,1085,0,0,205,22,0,99
31,274,216,240,6,730,-4,1010,1085,0,1,205,27,922,0
32,184,234,312,730,730,45,995,1085,1,0,205,0,0,372
33,184,234,312,236,730,39,995,1085,1,0,205,22,0,425
34,184,234,312,233,730,38,995,1085,1,0,205,11,0,405
35,208,264,258,59,730,-4,905,1085,0,1,205,31,77,0
36,110,385,235,730,730,-4,815,1085,0,1,205,29,298,0
37,110,385,235,143,730,34,815,1085,1,0,205,22,0,311
38,110,385,235,140,730,33,815,1085,1,0,205,10,112,0
39,247,362,121,145,730,27,815,1085,1,0,205,9,257,0
40,245,263,222,730,730,0,815,995,0,0,205,0,722,0
41,245,263,222,730,730,0,815,995,0,0,205,22,82,0
42,382,263,85,89,730,8,815,995,1,0,205,0,0,115
43,382,263,85,108,730,2,815,995,1,0,205,9,430,0
44,382,172,176,730,730,0,815,980,0,0,205,9,174,0
45,380,81,269,730,730,1,815,965,0,0,205,5,64,0
46,424,81,225,730,730,0,815,965,0,0,205,11,62,0
47,560,61,109,730,730,0,815,965,0,0,205,3,958,0
48,580,24,126,730,75,9,815,825,1,0,205,0,0,105
49,580,24,126,730,72,10,815,825,1,0,205,22,0,965
50,423,61,246,50,730,-3,645,825,1,1,205,31,102,0
51,325,320,85,730,730,-4,555,825,1,1,205,30,512,0
52,348,190,192,730,730,50,555,675,0,1,137,5,111,0
53,511,145,74,730,730,5,555,675,1,0,205,16,0,537
54,336,175,219,29,730,-1,395,675,1,1,205,28,825,0
55,244,271,215,730,730,50,380,675,1,0,194,5,0,755
56,288,307,135,730,730,0,380,675,0,0,205,0,60,0
57,288,306,136,730,730,0,380,675,0,0,205,22,730,0
58,366,319,45,730,730,-4,240,675,0,1,205,30,516,0
59,389,189,152,730,730,50,240,525,0,1,137,0,59,0
60,389,159,182,730,730,50,240,525,0,0,174,5,88,0
61,553,133,44,730,730,0,240,525,0,0,205,21,362,0
62,573,95,62,730,730,-9,240,495,1,1,205,40,423,0
63,573,52,105,730,730,0,240,365,0,0,137,0,0,42
64,573,73,84,730,730,0,240,365,0,0,109,14,447,0
65,610,24,96,730,730,50,240,195,0,1,139,3,96,0
66,638,24,68,730,730,5,240,165,1,0,205,24,2228,0
67,255,285,190,730,730,41,975,1100,1,0,205,5,0,865
68,201,292,237,730,730,0,885,1100,0,0,205,11,5,0
69,337,307,86,730,730,24,885,1100,1,0,205,14,0,1204
70,289,382,59,730,730,8,745,1100,1,1,205,27,0,468
71,258,382,90,730,730,18,745,1100,1,0,205,13,0,619
72,221,382,127,730,730,0,645,1100,0,0,205,22,672,0
73,221,382,127,730,730,0,645,1100,0,0,205,11,672,0
74,365,296,69,730,730,10,645,970,1,1,205,18,24,0
75,365,271,94,730,730,5,645,940,1,0,205,5,0,60
76,375,264,91,730,730,0,645,940,0,0,205,7,0,251
77,353,264,113,730,730,14,645,940,1,0,205,3,113,0
78,437,214,79,730,730,10,595,800,1,0,205,0,0,127
79,437,214,79,730,730,4,595,800,1,0,205,0,0,523
80,437,214,79,730,730,50,595,800,1,0,205,3,0,1385
81,262,390,78,730,730,-4,435,800,0,1,205,28,0,332
82,203,393,134,730,730,1,310,800,1,0,205,10,139,0
83,202,304,224,730,730,0,310,785,0,0,205,11,66,0
84,192,373,165,730,730,42,185,785,1,0,205,11,0,350
85,336,337,57,210,730,9,185,655,1,1,205,24,521,0
86,336,211,183,730,730,0,185,485,0,0,205,5,0,9
87,379,260,91,730,730,0,185,485,0,0,109,14,458,0
88,424,112,194,730,730,50,185,315,0,1,139,10,509,0
89,424,87,219,730,20,9,185,315,1,0,205,11,0,339
90,560,58,112,730,730,0,185,300,0,0,151,13,367,0
91,689,24,17,730,730,50,185,210,0,1,70,19,0,143
92,689,24,17,730,730,0,185,130,1,0,136,19,0,216
93,661,24,45,730,730,0,185,130,0,0,205,23,168,0
94,598,24,108,730,730,0,185,60,0,0,205,9,0,273
95,560,24,146,730,730,0,85,60,0,0,205,5,0,360
96,603,24,103,730,730,0,85,60,0,0,205,3,2999,0
97,329,285,116,730,730,0,1100,1100,0,0,205,8,0,696
98,418,267,45,730,730,0,1100,1100,0,0,205,25,0,329
99,373,264,93,730,730,1,975,1100,1,0,205,8,0,663
