,SelfDistCorner,EnemyDistCorner,SelfDistEnemy,SelfDistFireball,EnemyDistFireball,FrameAdvantage,SelfLife,EnemyLife,InCombo,EnemyInCombo,EnemyY,Option,RW,RS
0,445,180,105,730,730,27,940,890,1,0,205,12,104,0
1,567,106,57,730,730,8,940,780,1,1,205,19,177,0
2,567,65,98,730,730,3,940,700,1,0,205,3,0,189
3,567,24,139,730,730,0,940,685,0,0,205,0,32,0
4,567,24,139,730,730,0,940,685,0,0,205,22,6,0
5,481,150,99,730,730,4,890,685,1,0,205,9,86,0
6,480,61,189,730,730,0,890,670,0,0,205,11,0,330
7,196,489,45,730,730,-4,620,670,0,1,205,27,0,775
8,178,489,63,730,730,0,620,670,0,0,205,20,0,500
9,128,515,87,730,730,19,480,670,1,1,205,29,0,132
10,128,498,104,730,730,5,480,640,1,0,205,16,0,333
11,128,513,89,730,730,0,480,640,0,0,137,7,228,0
12,106,541,83,730,730,0,480,640,0,0,104,9,0,305
13,28,643,59,730,730,-4,340,640,0,1,205,31,0,394
14,59,626,45,730,730,16,340,630,1,1,205,20,0,1112
15,24,642,64,730,730,22,80,630,1,1,205,30,0,2589
16,285,285,160,730,730,0,1100,1100,0,0,205,22,153,0
17,285,285,160,730,730,0,1100,1100,0,0,205,10,0,6
18,264,290,176,730,730,0,975,1100,0,0,195,22,0,346
19,264,293,173,730,730,0,975,1100,0,0,185,11,0,355
20,24,622,84,730,730,25,545,1100,1,1,205,30,54,0
21,47,492,191,730,730,50,545,950,0,1,137,5,115,0
22,211,447,72,730,730,5,545,950,1,0,205,14,0,70
23,78,312,340,730,730,0,385,780,1,1,205,30,0,754
24,100,313,317,172,730,23,385,780,1,0,205,5,0,230
25,144,313,273,66,730,8,385,780,1,0,205,5,0,378
26,61,390,279,730,730,0,295,780,0,0,205,5,3,0
27,104,428,198,730,730,0,295,780,0,0,166,11,0,173
28,27,597,106,730,730,24,235,780,1,0,205,9,4,0
29,26,503,201,730,730,0,235,690,0,0,205,22,0,336
30,26,503,201,730,730,0,235,690,0,0,205,9,0,422
31,329,285,116,730,730,0,1100,1100,0,0,205,5,0,398
32,347,285,98,730,730,0,1100,1100,0,0,205,16,497,0
33,347,231,152,730,730,3,1100,950,1,0,205,5,0,417
34,390,230,110,730,730,0,1100,950,0,0,205,16,0,266
35,390,230,110,730,730,13,1100,950,1,0,205,16,0,454
36,390,230,110,730,730,0,1100,950,0,0,205,14,519,0
37,540,55,135,730,730,10,1100,780,1,0,205,10,0,117
38,501,24,205,730,730,9,1000,690,1,0,205,9,0,91
39,500,160,70,730,170,0,1000,690,1,0,205,18,154,0
40,500,144,86,730,225,5,1000,660,1,0,205,9,0,199
41,500,72,158,730,730,0,1000,645,0,0,158,22,0,361
42,500,76,154,730,730,0,1000,645,0,0,151,11,0,393
43,188,315,227,730,730,0,740,645,0,0,205,11,270,0
44,332,282,116,113,730,10,740,515,1,1,205,16,0,373
45,332,264,134,205,730,0,740,515,0,0,205,22,555,0
46,332,264,134,208,730,0,740,515,0,0,205,10,394,0
47,137,404,189,4,730,-2,450,515,1,1,205,27,103,0
48,46,490,194,730,730,0,435,515,0,0,205,11,554,0
49,190,475,65,730,730,9,435,385,1,1,205,23,336,0
50,190,399,141,730,730,0,435,245,0,0,205,22,392,0
51,190,399,141,730,730,0,435,245,0,0,205,10,92,0
52,326,310,94,730,730,0,435,195,1,1,145,3,0,837
53,276,394,60,730,730,-4,295,195,0,1,205,27,745,0
54,26,505,199,56,730,14,135,195,1,1,205,31,0,143
55,24,552,154,24,730,18,45,195,1,1,205,29,45,0
56,24,552,154,72,730,38,30,195,1,0,205,5,0,2515
57,24,552,154,76,730,39,30,195,1,0,205,22,0,2545
58,284,209,237,730,730,0,1100,1085,0,0,205,5,6,0
59,284,206,240,730,730,0,1100,1085,0,0,205,22,0,191
60,230,405,95,730,730,26,970,1085,1,0,205,3,0,938
61,157,527,46,730,730,13,830,1085,1,1,205,26,0,226
62,95,527,108,730,730,24,830,1085,1,0,205,15,0,1198
63,127,527,76,730,730,17,830,1085,1,0,205,9,0,790
64,45,649,36,730,730,14,690,1085,1,1,162,27,0,841
65,24,662,44,730,730,50,480,1085,1,0,187,24,0,732
66,24,458,248,730,730,5,480,915,1,0,205,0,0,40
67,24,460,246,730,730,6,480,915,1,0,205,22,0,160
68,24,629,77,730,730,16,370,915,1,0,205,13,0,1043
69,24,661,45,730,730,-4,110,915,0,1,205,29,0,130
70,24,662,44,730,730,50,10,915,1,0,187,22,0,3357
71,285,285,160,730,730,0,1100,1100,0,0,205,9,148,0
72,285,199,246,730,730,0,1100,1085,0,0,205,5,8,0
73,329,237,164,730,730,0,1100,1085,0,0,166,5,0,16
74,374,293,63,730,730,0,1100,1085,0,0,100,18,0,49
75,374,297,59,730,730,0,1100,1085,0,0,101,23,193,0
76,374,290,66,730,730,0,1100,1085,0,0,100,22,213,0
77,374,300,56,730,730,0,1100,1085,0,0,102,22,235,0
78,274,212,244,730,730,-4,1055,975,0,1,205,28,0,91
79,264,299,167,730,730,0,1055,975,0,0,102,10,0,98
80,211,284,235,730,730,50,925,885,0,0,183,5,105,0
81,211,289,230,730,730,50,925,885,0,0,178,22,543,0
82,397,264,69,730,730,0,925,885,0,0,205,25,0,479
83,229,302,199,41,730,9,755,885,1,1,205,28,0,37
84,137,355,238,730,730,0,740,885,0,0,205,0,0,36
85,137,373,220,730,730,0,740,885,0,0,205,0,0,23
86,137,388,205,730,730,0,740,885,0,0,205,0,0,31
87,137,402,191,730,730,0,740,885,0,0,166,10,0,321
88,89,545,96,730,152,0,630,885,0,0,205,13,1272,0
89,456,193,81,730,730,18,600,885,1,0,205,13,0,1140
90,208,321,201,8,730,-2,340,885,1,1,205,28,99,0
91,116,407,207,730,730,0,325,885,0,0,205,0,0,32
92,116,425,189,730,730,0,325,885,0,0,205,5,0,17
93,150,466,114,730,730,0,325,885,0,0,120,13,379,0
94,283,412,35,730,730,50,325,795,0,1,67,21,97,0
95,368,317,45,730,730,-13,325,795,0,1,205,40,95,0
96,368,198,164,730,730,0,325,780,0,0,205,0,0,42
97,368,219,143,730,730,0,325,780,0,0,151,9,0,400
98,211,331,188,730,730,11,85,780,1,0,205,10,292,0
99,209,195,326,730,126,0,85,780,1,0,205,11,33,0
