,SelfDistCorner,EnemyDistCorner,SelfDistEnemy,SelfDistFireball,EnemyDistFireball,FrameAdvantage,SelfLife,EnemyLife,InCombo,EnemyInCombo,EnemyY,Option,RW,RS
0,604,24,102,730,730,4,395,670,1,0,205,15,0,349
1,601,24,105,730,730,0,395,670,0,0,205,16,0,310
2,564,24,142,730,730,0,295,670,0,0,205,9,0,225
3,498,152,80,730,730,16,185,670,1,0,205,5,0,562
4,284,190,256,730,730,1,1100,1010,1,0,205,9,12,0
5,282,190,258,730,730,2,1100,1010,1,0,205,11,0,33
6,419,234,77,730,730,0,1100,1010,0,0,116,7,0,537
7,396,262,72,730,730,0,1100,1010,0,0,100,15,0,15
8,396,180,154,730,730,0,1100,885,1,0,148,0,45,0
9,396,150,184,730,730,0,1100,885,1,0,203,5,62,0
10,431,144,155,730,730,0,1100,885,0,0,205,9,170,0
11,429,48,253,730,730,0,1100,870,0,0,205,11,277,0
12,454,201,75,730,730,-4,1010,740,0,1,205,30,0,400
13,477,166,87,730,730,0,1010,730,0,1,205,9,0,525
14,427,273,30,730,730,-4,870,730,0,1,109,31,165,0
15,464,120,146,730,730,50,870,560,0,1,119,9,512,0
16,465,90,175,730,64,10,870,560,1,0,205,22,0,839
17,465,90,175,730,68,9,870,560,1,0,205,9,0,894
18,365,296,69,730,730,-4,700,560,0,1,205,27,0,255
19,365,295,70,730,730,0,700,560,0,0,205,20,0,290
20,335,295,100,730,730,0,620,560,0,0,205,13,143,0
21,248,419,63,730,730,0,620,560,0,0,205,24,0,114
22,248,325,157,730,730,0,620,545,0,0,205,0,46,0
23,248,325,157,730,730,0,620,545,0,0,205,22,0,275
24,140,524,66,730,730,-4,470,545,0,1,205,28,46,0
25,129,524,77,730,730,0,470,545,0,0,205,7,366,0
26,107,524,99,730,730,0,470,545,0,0,205,7,251,0
27,83,524,123,730,730,20,470,545,1,0,205,5,0,501
28,126,524,80,730,730,5,470,545,1,0,205,3,0,199
29,126,443,161,730,730,0,470,530,0,0,205,5,318,0
30,170,485,75,730,730,0,470,530,0,0,205,7,0,324
31,124,485,121,730,730,0,370,530,0,0,205,10,1008,0
32,123,412,195,730,730,41,370,440,1,0,205,11,0,347
33,266,377,87,182,730,9,370,310,1,1,205,13,303,0
34,310,358,62,730,730,0,370,310,0,0,205,23,262,0
35,310,287,133,730,730,0,370,240,0,0,205,11,0,174
36,214,453,63,730,730,0,260,240,0,0,101,21,0,742
37,114,506,110,730,730,23,80,240,1,0,205,0,0,531
38,114,506,110,730,730,17,80,240,1,0,205,3,0,281
39,114,506,110,730,730,0,80,240,0,0,205,15,0,303
40,114,530,86,730,730,50,80,240,1,0,170,3,0,824
41,114,542,74,730,730,0,80,240,0,0,205,12,1435,0
42,476,210,44,730,730,11,80,130,1,1,205,17,457,0
43,474,211,45,730,730,0,80,130,0,0,205,20,1252,0
44,474,96,160,730,730,50,80,10,1,0,153,9,0,87
45,486,24,220,730,23,10,80,10,1,0,205,5,0,119
46,531,24,175,730,85,0,80,10,0,0,205,11,0,466
47,453,161,116,730,730,0,30,10,0,0,205,15,0,253
48,453,80,197,730,730,0,30,10,0,0,103,5,138,0
49,490,28,212,730,730,0,30,10,0,0,190,10,46,0
50,489,26,215,730,730,3,30,10,1,0,205,22,0,3
51,489,26,215,730,730,2,30,10,1,0,205,9,17,0
52,625,27,78,154,730,2,30,10,1,0,205,5,0,2143
53,284,195,251,730,730,1,1100,1085,0,0,205,9,0,37
54,282,197,251,730,730,0,1100,1085,0,0,205,5,70,0
55,326,197,207,730,730,0,1100,1085,0,0,205,5,93,0
56,371,186,173,730,730,0,1100,1085,0,0,205,5,126,0
57,416,147,167,730,730,0,1100,1085,0,0,205,11,320,0
58,557,116,57,164,730,11,1100,955,1,1,205,21,119,0
59,577,65,88,288,730,-9,1100,875,1,1,205,40,363,0
60,557,60,113,730,730,0,1100,875,0,0,205,12,375,0
61,589,92,49,730,730,19,1070,875,1,0,205,24,0,1932
62,589,92,49,730,730,0,1070,875,0,0,205,22,0,1603
63,589,92,49,730,730,20,1070,875,1,0,205,22,0,1931
64,24,661,45,730,730,20,1040,875,1,0,205,24,0,1395
65,24,662,44,730,730,-4,920,875,0,1,205,31,578,0
66,167,486,77,730,730,10,920,705,1,0,205,8,0,576
67,24,642,64,730,730,-4,750,705,0,1,205,28,0,422
68,24,642,64,730,730,0,750,705,0,0,205,23,437,0
69,24,597,109,730,730,0,750,565,0,0,205,8,0,545
70,100,585,45,730,730,0,750,565,0,0,205,18,20,0
71,76,562,92,730,730,0,720,535,0,0,205,9,377,0
72,76,473,181,730,730,0,720,445,0,0,205,9,31,0
73,75,610,45,730,195,19,720,445,1,0,205,20,921,0
74,75,495,160,730,221,50,720,325,1,0,153,9,0,588
75,141,415,174,730,730,10,720,325,1,0,205,10,0,11
76,139,341,250,730,730,7,720,310,0,0,205,10,116,0
77,138,470,122,730,77,0,720,310,0,0,166,11,570,0
78,443,233,54,730,255,0,720,310,0,0,205,17,1012,0
79,464,106,160,730,730,50,720,190,1,0,153,0,90,0
80,464,58,208,730,730,50,720,190,1,0,174,9,0,370
81,592,34,104,730,730,0,720,100,0,0,175,0,0,42
82,592,55,83,730,730,0,720,100,0,0,131,13,375,0
83,706,24,0,730,730,50,720,10,0,1,64,23,0,3509
84,662,24,44,730,730,10,720,10,1,0,205,33,0,717
85,486,158,86,730,730,14,550,10,1,1,205,31,2289,0
86,284,195,251,730,730,1,1100,1085,0,0,205,5,295,0
87,327,195,208,119,730,35,1100,1085,1,0,205,0,0,112
88,327,195,208,122,730,36,1100,1085,1,0,205,22,0,346
89,464,191,75,160,730,26,1100,1085,1,0,205,3,0,1425
90,414,302,14,730,730,-4,960,1085,0,1,101,30,234,0
91,437,210,83,730,730,50,960,935,0,1,47,9,518,0
92,555,25,150,730,730,10,960,845,1,0,205,10,86,0
93,554,24,152,730,730,0,960,755,0,0,205,5,0,390
94,597,24,109,730,730,0,960,755,0,0,205,15,0,282
95,597,24,109,730,730,15,960,755,1,0,205,3,0,117
96,560,24,146,730,730,0,960,640,0,0,205,0,0,26
97,560,34,136,730,730,0,960,640,0,0,175,10,0,79
98,465,157,108,730,730,25,750,640,1,0,205,5,0,100
99,481,157,92,730,730,19,750,640,1,0,205,0,0,126
